<?xml version="1.0" encoding="utf-8"?>
<!-- Generator: Adobe Illustrator 19.2.1, SVG Export Plug-In . SVG Version: 6.00 Build 0)  -->
<svg version="1.1" xmlns="http://www.w3.org/2000/svg" xmlns:xlink="http://www.w3.org/1999/xlink" x="0px" y="0px"
	 viewBox="0 0 45 45" style="enable-background:new 0 0 45 45;" xml:space="preserve">
<style type="text/css">
	.st0{display:none;}
	.st1{display:inline;}
	.st2{fill:#004731;}
	.st3{display:inline;fill:#004731;}
	.st4{fill:#004631;}
</style>
<g id="Butcher" class="st0">
	<g class="st1">
		<path class="st2" d="M34.5,16.9c0-0.1-0.1-0.2-0.2-0.2c-0.1,0-0.2,0-0.3,0c0,0-1.5,0.6-3.3-0.2c-11.1-5.6-17.3-3.9-17.5-3.8
			c0,0-0.1,0.1-0.1,0.1c-1.3,0.2-2.4,1-3.3,2.2c-1.7,2.3-2.3,6-1.6,9.8c1.1,6,5.1,10.6,9.1,10.6c0.2,0,0.3,0,0.5,0
			c0.3,0,0.6-0.1,0.8-0.2c0,0,0,0,0.1,0c0,0,0,0,0.1,0c4.8-0.8,9.6-7.1,12.5-10.9c1.1-1.4,2-2.5,2.3-2.8
			C35.4,20.5,34.5,17,34.5,16.9z M17.8,34.7c-3.8,0.3-7.8-4.2-8.9-10.1c-0.7-3.7-0.1-7.1,1.5-9.3c0.9-1.2,2.1-1.9,3.4-2
			c0.1,0,0.3,0,0.4,0c3.7,0,7.5,4.5,8.5,10.1c0.7,3.7,0.1,7.1-1.5,9.3C20.2,33.9,19.1,34.6,17.8,34.7z M33.4,21
			c-0.5,0.3-1.3,1.3-2.5,2.9c-2.4,3-6,7.8-9.8,9.8c0.2-0.2,0.4-0.4,0.5-0.6c1.7-2.3,2.3-6,1.6-9.8c-0.9-5-4-9.1-7.3-10.3
			c2.8,0,7.7,0.6,14.6,4c1.6,0.7,2.9,0.5,3.5,0.3C34.2,18.4,34.4,20.4,33.4,21z"/>
		<path class="st2" d="M21,23.6c-1-5.3-4.3-8.8-6.8-8.9c-0.1,0-0.3,0-0.4,0c-0.8,0.1-1.5,0.5-2.1,1.3c-1.4,1.8-1.9,5-1.3,8.3
			c1,5.3,4.3,8.8,6.8,8.9c0.1,0,0.3,0,0.4,0c0,0,0.1,0,0.1,0l0-0.4c0,0-0.1-1.1-0.4-2.2c-0.3-1.2-0.9-2.2-1.7-2.3
			c-1.2-0.2-1.6-1.5-1.7-2.4c-0.6-0.1-1-0.6-1-1.3c0-0.7,0.5-1.4,1.1-1.4c0.6,0,1.1,0.6,1.1,1.4c0,0.6-0.3,1-0.7,1.2
			c0.1,0.6,0.5,1.4,1.5,1.5c1.4,0.2,2.2,1.6,2.7,2.7c0.5,1.2,0.6,2.4,0.6,2.4l0,0.2c0.2-0.1,0.3-0.3,0.5-0.5
			C21.2,30.1,21.6,27,21,23.6z"/>
	</g>
</g>
<g id="Fishmonger" class="st0">
	<g class="st1">
		<path class="st2" d="M11.4,19.3c1,2.3,0.8,3.8-0.1,5.7c2.4,1.1,5.5,2,8.7,2c6,0,11.3-3.2,13.6-4.9c-2.3-1.6-7.5-4.9-13.6-4.9
			C16.9,17.3,13.9,18.2,11.4,19.3z"/>
		<ellipse class="st2" cx="10.1" cy="21.4" rx="0.9" ry="0.9"/>
		<path class="st2" d="M40.3,26.8l0-9.3c0-0.2-0.1-0.3-0.2-0.4c-0.1-0.1-0.3,0-0.4,0.1l-4.3,4.3c-1.2-0.9-4.5-3.4-9-4.8l0.3-3.6
			c0-0.2-0.1-0.3-0.2-0.4c-0.2-0.1-0.3,0-0.4,0.1c-0.7,0.7-2.6,2.7-3.7,3.1c-0.7-0.1-1.5-0.1-2.2-0.1c-8.6,0-15.5,5.9-15.8,6.2
			c-0.1,0.1-0.1,0.2-0.1,0.3s0,0.2,0.1,0.3c0.3,0.3,7.1,6.2,15.8,6.2c0.6,0,1.2,0,1.8-0.1c1,0.5,2.6,2.6,3.2,3.4
			c0.1,0.1,0.2,0.2,0.3,0.2c0,0,0.1,0,0.1,0c0.2,0,0.3-0.2,0.3-0.4l0.2-4c0,0,0,0,0,0c4.7-1.4,8.3-4,9.4-4.9l4.2,4.3
			c0.1,0.1,0.2,0.1,0.3,0.1h0C40.1,27.2,40.3,27.1,40.3,26.8C40.3,26.8,40.3,26.8,40.3,26.8z M25.8,14.2l-0.2,2.4
			c-0.7-0.2-1.3-0.3-2-0.5C24.4,15.5,25.2,14.7,25.8,14.2z M25,30.6c-0.5-0.7-1.3-1.6-2-2.2c0.7-0.1,1.4-0.3,2.1-0.4L25,30.6z
			 M22,27.8c-0.1,0-0.2,0-0.3,0c-0.6,0.1-1.1,0.1-1.7,0.1c-7.2,0-13.3-4.5-14.9-5.7c1.5-1.2,7.7-5.7,14.9-5.7
			c7.1,0,13.2,4.4,14.8,5.6c0,0,0,0,0,0.1C33.4,23.4,28.3,27.1,22,27.8z M35.9,22.3C35.9,22.3,35.9,22.2,35.9,22.3
			c0-0.1,0-0.2,0-0.2l3.6-3.6l0,7.4L35.9,22.3z"/>
		<path class="st2" d="M38.8,20.2c-0.1,0-0.2,0-0.2,0L36.8,22c-0.1,0.1-0.1,0.2,0,0.3l1.8,1.8c0,0,0.1,0.1,0.1,0.1c0,0,0.1,0,0.1,0
			c0.1,0,0.1-0.1,0.1-0.2v-3.6C38.9,20.3,38.9,20.2,38.8,20.2z"/>
	</g>
</g>
<g id="Bakery" class="st0">
	<g class="st1">
		<path class="st2" d="M37.3,15.5c0-2.7-1.3-3.5-2.5-4.2c-2.6-1.6-7.6-1.6-11.7-0.9c-0.6,0.2-1.3,0.3-1.9,0.3
			c-0.7,0-1.1-0.1-2.1-0.4c-1.1-0.2-1.6-0.2-1.9-0.2c0,0,0,0-0.1,0c-1.5,0-3,0.8-3.9,2.2c-2.4,0.3-4.3,2.7-4.3,5.6
			c0,0.6,0.1,1.2,0.2,1.8l0,11.9c0,0.7,0.6,1.3,1.3,1.3h0l14.7,0.9c0,0,0,0,0,0c0.6,0,1.2-0.5,1.3-1.1c0,0,0-0.1,0-0.1v-1h2
			c0.3,0,0.5-0.1,0.7-0.3l0,0l8-3.1c0,0,0.1-5.3-0.1-10.4C37,17.2,37.3,16,37.3,15.5z M25.7,32.6c0,0.3-0.3,0.5-0.6,0.5l-14.7-0.9
			c-0.3,0-0.6-0.3-0.6-0.6l0-12c0,0,0-0.1,0-0.1C9.7,19,9.6,18.5,9.6,18c0-2.7,1.8-4.8,4-4.9c0.1,0,0.1,0,0.2,0c0.2,0,0.4,0,0.6,0.1
			c0.1,0,0.1,0,0.2,0c0.2,0.1,0.4,0.1,0.6,0.2c0,0,0,0,0,0c0.1,0.1,0.1,0.1,0.2,0.2c0.7,0.6,1.5,0.9,2.3,0.9c0.7,0,1.4-0.2,2-0.6
			c0.2-0.1,0.4-0.3,0.5-0.4c0.5-0.2,1-0.3,1.5-0.3c2.3,0,4.2,2.2,4.2,4.9c0,0.6-0.1,1.2-0.3,1.8c0,0,0,0.1,0,0.1v11.5c0,0,0,0,0,0
			L25.7,32.6C25.7,32.6,25.7,32.6,25.7,32.6z M29,17.7v12.7c0,0,0,0,0,0.1c0,0.3-0.3,0.5-0.6,0.5h-2V19.9c0.2-0.6,0.3-1.3,0.3-2
			c0-1.4-0.4-2.6-1.1-3.6c-0.2-0.3-0.4-0.5-0.6-0.7c0,0,0,0,0,0c-0.8-0.8-1.9-1.3-3.1-1.3c-0.6,0-1.3,0.1-1.8,0.4c0,0-0.1,0-0.1,0.1
			c0,0,0,0,0,0c-0.2,0.2-0.3,0.3-0.5,0.4c-0.5,0.3-1,0.5-1.6,0.5c-0.6,0-1.1-0.2-1.6-0.5c0,0-0.1-0.1-0.1-0.1
			c-0.1-0.1-0.2-0.2-0.4-0.3c0,0-0.1,0-0.1-0.1c0,0,0,0,0,0l0,0c0,0,0,0,0,0c0,0,0,0,0,0c-0.3-0.1-0.5-0.2-0.8-0.3
			c-0.1,0-0.2,0-0.3,0c-0.1,0-0.3-0.1-0.4-0.1c0.8-1,1.9-1.5,3-1.5c0.5,0,1,0.1,1.5,0.3c0.7,0.7,1.6,1,2.5,1c0.9,0,1.8-0.4,2.5-1
			c0.5-0.2,1-0.3,1.5-0.3c2.3,0,4.2,2.2,4.2,4.9c0,0.6-0.1,1.2-0.3,1.8C29,17.6,29,17.6,29,17.7z"/>
		<ellipse class="st2" cx="14.2" cy="17.3" rx="1.1" ry="1.2"/>
		<ellipse class="st2" cx="16.7" cy="19.1" rx="0.6" ry="0.6"/>
		<ellipse class="st2" cx="20.7" cy="16.2" rx="0.6" ry="0.6"/>
		<ellipse class="st2" cx="22.4" cy="18.6" rx="0.8" ry="0.8"/>
		<ellipse class="st2" cx="20.4" cy="20.2" rx="0.4" ry="0.4"/>
	</g>
</g>
<g id="Parking" class="st0">
	<path class="st3" d="M24.6,8.2c1.7,0,3.2,0.3,4.4,0.8c1.2,0.5,2.2,1.2,3,2c0.8,0.8,1.3,1.8,1.7,2.8c0.4,1.1,0.5,2.2,0.5,3.3
		c0,1.1-0.2,2.2-0.5,3.3c-0.4,1.1-0.9,2-1.7,2.9c-0.8,0.8-1.8,1.5-3,2c-1.2,0.5-2.7,0.8-4.4,0.8h-6.4v10H12V8.2H24.6z M22.9,21.3
		c0.7,0,1.4-0.1,2-0.2c0.6-0.1,1.2-0.3,1.7-0.6c0.5-0.3,0.9-0.7,1.2-1.3c0.3-0.5,0.4-1.3,0.4-2.1s-0.2-1.6-0.4-2.1
		c-0.3-0.5-0.7-1-1.2-1.3c-0.5-0.3-1.1-0.5-1.7-0.6c-0.6-0.1-1.3-0.2-2-0.2h-4.8v8.3H22.9z"/>
</g>
<g id="Deli" class="st0">
	<g class="st1">
		<path class="st2" d="M16.8,21.7c1.3,0,2.4-1.1,2.4-2.4c0-1.3-1.1-2.4-2.4-2.4c-1.3,0-2.4,1.1-2.4,2.4
			C14.4,20.6,15.5,21.7,16.8,21.7z M16.8,17.4c1,0,1.8,0.8,1.8,1.8c0,1-0.8,1.8-1.8,1.8c-1,0-1.8-0.8-1.8-1.8
			C15,18.3,15.8,17.4,16.8,17.4z"/>
		<path class="st2" d="M11.3,15.2c-1,0-1.8,0.8-1.8,1.8c0,1,0.8,1.8,1.8,1.8c1,0,1.8-0.8,1.8-1.8C13.1,16.1,12.3,15.2,11.3,15.2z
			 M11.3,18.3c-0.7,0-1.3-0.6-1.3-1.3c0-0.7,0.6-1.3,1.3-1.3c0.7,0,1.3,0.6,1.3,1.3C12.5,17.8,12,18.3,11.3,18.3z"/>
		<path class="st2" d="M38.3,22.1L36.7,20c0,0-0.3-1.2-0.8-2.4c-0.5-1.2-1.1-0.9-1.1-0.9l-0.4,3.7c-0.9-1.9-4.5-2.9-6.7-2.5v-4.2
			c0-0.1-1.2-1.8-2.6-3.1c-2-1.9-3.5-2.4-3.5-2.5l-0.3,0L8,13.7h0v10.9h4.6c-1.3,1-1.5,3.7-0.2,6.5c1.1,2.5,3,4.3,4.6,4.3
			c0.2,0,0.4,0,0.6-0.1c0.1,0,0.3,0,0.4,0l13.9-6.1c2.1-0.9,4.2-4.8,3.4-7L38.3,22.1z M25.4,17.7c0-0.8,0.7-1.4,1.5-1.5v1.9
			l-1.2,0.5C25.6,18.4,25.4,18.1,25.4,17.7z M21.5,8.8c0.4,0.2,1.6,0.8,3.2,2.2c0.9,0.8,1.6,1.9,2.1,2.6H9.9L21.5,8.8z M8.7,14.5
			l1.6,0H27v1.2c-1.2,0.1-2.1,1-2.1,2.1c0,0.4,0.1,0.8,0.4,1.2l-11.2,4.9H8.7V14.5z M17.5,34.6c-0.2,0.1-0.3,0.1-0.5,0.1
			c-1.3,0-3-1.6-3.9-3.8c-1.1-2.6-1-5.3,0.3-5.8c0.2-0.1,0.3-0.1,0.5-0.1c1.3,0,3,1.6,3.9,3.8c0.6,1.3,0.9,2.7,0.8,3.8
			C18.5,33.6,18.1,34.3,17.5,34.6z"/>
		<ellipse class="st2" cx="13.9" cy="27.7" rx="0.7" ry="0.6"/>
		<ellipse transform="matrix(0.5447 -0.8386 0.8386 0.5447 -18.8333 25.6071)" class="st2" cx="14.2" cy="30.1" rx="0.6" ry="0.7"/>
		<ellipse transform="matrix(0.9903 -0.1391 0.1391 0.9903 -4.3525 2.5067)" class="st2" cx="15.8" cy="32.4" rx="0.6" ry="0.7"/>
		<ellipse class="st2" cx="16.9" cy="30.1" rx="0.7" ry="0.6"/>
	</g>
</g>
<g id="Fresh_to_go" class="st0">
	<g class="st1">
		<path class="st2" d="M27.2,14.1c-0.2,0.1-0.5,0.2-0.7,0.4c-0.2,0.2-0.4,0.4-0.6,0.7c-0.2,0.3-0.3,0.6-0.4,0.9
			c-0.1,0.3-0.1,0.7-0.1,1c0,0.3,0,0.6,0.1,0.9c0.1,0.3,0.2,0.5,0.4,0.7c0.1,0.1,0.1,0.1,0.2,0.2l1.3-4.7
			C27.3,14.1,27.3,14.1,27.2,14.1z"/>
		<path class="st2" d="M28.8,17c0.1-0.3,0.1-0.7,0.1-1c0-0.3,0-0.6-0.1-0.9c-0.1-0.3-0.2-0.5-0.4-0.7c-0.1-0.1-0.2-0.1-0.3-0.1
			l-1.3,4.7c0.1,0,0.2,0,0.3-0.1c0.2-0.1,0.5-0.2,0.7-0.4c0.2-0.2,0.4-0.4,0.6-0.7C28.5,17.7,28.7,17.4,28.8,17z"/>
		<path class="st2" d="M25,14.2c0.3-0.5,0.6-0.9,1-1.2c0.1-0.1,0.3-0.2,0.4-0.3c-0.1,0-0.2,0-0.3,0h0c-0.6,0-1.3,0.1-1.8,0.3
			c-0.5,0.2-1,0.5-1.4,0.9c-0.4,0.4-0.6,0.8-0.8,1.3c-0.1,0.5-0.1,1,0,1.5c0.1,0.5,0.4,1,0.7,1.4c0.4,0.5,0.8,0.9,1.4,1.2
			c0.1,0,0.1,0.1,0.2,0.1c-0.1-0.1-0.1-0.3-0.2-0.5c-0.1-0.5-0.2-1-0.2-1.5c0-0.6,0.1-1.1,0.2-1.7C24.5,15.2,24.7,14.7,25,14.2z"/>
		<path class="st2" d="M30,20.1c0.5-0.2,1-0.5,1.4-0.9c0.4-0.4,0.6-0.8,0.8-1.3c0.1-0.5,0.1-1,0-1.5c-0.1-0.5-0.4-1-0.7-1.4
			c-0.4-0.5-0.8-0.9-1.4-1.2c-0.1-0.1-0.2-0.1-0.3-0.1c0.1,0.2,0.1,0.3,0.2,0.5c0.1,0.5,0.2,1,0.2,1.5c0,0.6-0.1,1.1-0.2,1.7
			c-0.2,0.6-0.4,1.1-0.7,1.6c-0.3,0.5-0.6,0.9-1,1.2c-0.1,0.1-0.3,0.2-0.4,0.3h0c0.1,0,0.1,0,0.2,0C28.8,20.4,29.4,20.3,30,20.1z"/>
		<path class="st2" d="M30.6,21.9c0.2-0.1,0.4-0.1,0.6-0.2c0.8-0.3,1.5-0.7,2-1.3c0.6-0.6,1-1.2,1.2-1.9c0.2-0.7,0.2-1.5,0-2.2
			c-0.2-0.7-0.5-1.5-1.1-2.1c-0.5-0.7-1.2-1.3-2-1.8C30.9,12,30.2,12,29.6,12c-0.4,0-0.8,0-1.1-0.1c-0.3-0.1-0.7-0.3-1-0.5
			c-0.5-0.3-1.2-0.6-1.7-0.6c-0.9,0-1.8,0.2-2.6,0.5c-0.8,0.3-1.5,0.7-2,1.3c-0.6,0.6-1,1.2-1.2,1.9c-0.2,0.7-0.2,1.5,0,2.2
			c0.2,0.7,0.5,1.5,1.1,2.1c0.1,0.1,0.2,0.2,0.3,0.4l-6.7-1.9l0.4,3.9l14.3,4.1c3,0.6,7.6,0.4,8-1.1c0-0.1,0.1-0.2,0.1-0.4
			L30.6,21.9z M21.6,18.6c-0.5-0.6-0.8-1.3-1-1.9c-0.2-0.7-0.2-1.4,0-2c0.2-0.6,0.5-1.2,1-1.7c0.5-0.5,1.1-0.9,1.8-1.1
			c0.7-0.3,1.5-0.4,2.4-0.5c0.1,0,0.2,0,0.4,0.1c0.3,0.1,0.6,0.2,0.9,0.4c0.4,0.2,0.8,0.4,1.2,0.5c0.4,0.1,0.9,0.1,1.3,0.2
			c0.5,0,1,0.1,1.3,0.3c0.7,0.5,1.3,1,1.8,1.6l1,1.9c0.2,0.7,0.2,1.4,0,2c-0.2,0.6-0.5,1.2-1,1.7c-0.5,0.5-1.1,0.9-1.8,1.1
			c-0.5,0.2-1,0.3-1.5,0.4l-6.9-1.9C22.2,19.3,21.9,19,21.6,18.6z"/>
		<path class="st2" d="M8.5,15.6c-0.5-0.2-1.1,0.2-1.3,0.7c-0.2,0.5,0.2,1.1,0.7,1.3l6.2,1.8l-0.2-2.2L8.5,15.6z"/>
		<path class="st2" d="M28.6,11.6C28.6,11.6,28.6,11.6,28.6,11.6L28.6,11.6C28.6,11.6,28.6,11.6,28.6,11.6c0,0,0.9,0.2,1.3,0
			c0.4-0.2,0.2-0.8,0.2-0.8s-0.5-0.1-0.8,0.1c0-0.4-0.3-0.6-0.3-0.6s-0.4,0.2-0.5,0.4c-0.2-0.4-0.6-0.6-0.6-0.6s-0.4,0.3-0.2,0.7
			C27.9,11.2,28.5,11.6,28.6,11.6z"/>
		<path class="st2" d="M23.5,27.1c-0.3,0-0.5,0.1-0.8,0.2c-0.3,0.1-0.5,0.3-0.8,0.4c-0.2,0.2-0.4,0.4-0.6,0.6
			c-0.1,0.2-0.2,0.4-0.3,0.6c-0.1,0.2-0.1,0.4,0,0.6c0,0.1,0.1,0.1,0.1,0.2l3.2-2.5c0-0.1-0.1-0.1-0.2-0.1C24,27,23.8,27,23.5,27.1z
			"/>
		<path class="st2" d="M22,30.2c0.2,0,0.5,0.1,0.7,0c0.3,0,0.5-0.1,0.8-0.2c0.3-0.1,0.5-0.3,0.8-0.4c0.2-0.2,0.4-0.4,0.6-0.6
			c0.1-0.2,0.2-0.4,0.3-0.6c0.1-0.2,0.1-0.4,0-0.6c0-0.1-0.1-0.1-0.2-0.2l-3.2,2.5C21.8,30.2,21.9,30.2,22,30.2z"/>
		<path class="st2" d="M28.5,27.7c-0.3-0.4-0.8-0.7-1.3-1c-0.3-0.2-0.6-0.3-0.9-0.5c-0.2-0.2-0.4-0.5-0.6-0.7
			c-0.3-0.4-0.7-0.8-1.2-1.1c-0.8-0.4-1.6-0.6-2.4-0.7c-0.2,0-0.4,0-0.6-0.1c0.1,0,0.3,0,0.4,0c-0.9-0.2-1.9-0.2-3.1,0.3
			c0,0,0,0,0,0c-0.5,0.2-1,0.5-1.6,0.8c-2.9,1.8-2.7,5.5,0.1,8c2.8,2.5,7.3,2.9,10,0.9c0.6-0.5,1.1-0.9,1.4-1.4c0,0,0,0,0,0
			c0.2-0.3,0.4-0.5,0.5-0.9c0.2-0.5,0.2-1.2,0.1-1.8C29.2,28.9,28.9,28.3,28.5,27.7z M22.3,24.1c0.7,0.1,1.5,0.3,2.2,0.7
			c0.1,0,0.2,0.1,0.3,0.2c0.2,0.2,0.4,0.4,0.6,0.6c0.2,0.3,0.4,0.6,0.7,0.8c0.3,0.3,0.7,0.4,1,0.6c0.4,0.2,0.8,0.5,1,0.7
			c0.4,0.6,0.6,1.2,0.7,1.8l-0.1,1.6c-0.2,0.5-0.5,0.9-0.9,1.3c-0.4,0.3-1,0.6-1.6,0.7c-0.6,0.1-1.3,0.1-2,0
			c-0.7-0.1-1.5-0.3-2.2-0.7c-1.5-0.7-2.8-1.8-3.6-3c-0.4-0.6-0.6-1.2-0.7-1.8c-0.1-0.6-0.1-1.1,0.1-1.6c0.2-0.5,0.5-0.9,0.9-1.3
			c0.4-0.3,1-0.6,1.6-0.7C20.8,24,21.5,24,22.3,24.1z M21,23.5c-0.3,0-0.6,0-0.9,0.1C20.3,23.6,20.7,23.5,21,23.5z M18.1,24.4
			c0.2-0.1,0.4-0.2,0.6-0.3C18.5,24.2,18.3,24.3,18.1,24.4c-0.3,0.2-0.6,0.5-0.8,0.8C17.5,24.9,17.8,24.6,18.1,24.4z M17,27.6
			c-0.1-0.6-0.1-1.2,0.1-1.8C16.9,26.4,16.9,27,17,27.6c0.1,0.4,0.3,0.9,0.5,1.3C17.3,28.5,17.1,28,17,27.6z M18.5,30.4
			C18.5,30.4,18.5,30.5,18.5,30.4C18.5,30.5,18.5,30.4,18.5,30.4z M28.2,32.8c-0.3,0.2-0.7,0.4-1.1,0.5C27.5,33.2,27.9,33,28.2,32.8
			C28.2,32.8,28.2,32.8,28.2,32.8C28.2,32.8,28.2,32.8,28.2,32.8z"/>
		<path class="st2" d="M19.7,25.7c-0.3,0.2-0.6,0.6-0.7,0.9c-0.1,0.4-0.1,0.8-0.1,1.2c0.1,0.4,0.3,0.9,0.6,1.3c0,0,0.1,0.1,0.1,0.1
			c0-0.1,0-0.2,0.1-0.3c0.1-0.4,0.3-0.7,0.5-1c0.3-0.4,0.6-0.7,1-1c0.4-0.3,0.8-0.5,1.3-0.7c0.4-0.2,0.9-0.3,1.3-0.4
			c0.2,0,0.3,0,0.5,0c-0.1,0-0.1-0.1-0.2-0.1c-0.5-0.2-1-0.4-1.5-0.5c-0.1,0-0.1,0-0.2,0c-0.5-0.1-1.1-0.1-1.5,0
			C20.4,25.3,20,25.5,19.7,25.7z"/>
		<path class="st2" d="M23.8,31c-0.4,0.2-0.9,0.3-1.3,0.4c-0.1,0-0.3,0-0.4,0c0,0,0.1,0,0.1,0.1c0.5,0.2,1,0.4,1.5,0.5
			c0.1,0,0.1,0,0.2,0c0.5,0.1,1.1,0.1,1.5,0c0.5-0.1,0.9-0.2,1.2-0.5c0.3-0.2,0.6-0.6,0.7-0.9c0.1-0.4,0.1-0.8,0.1-1.2
			c-0.1-0.4-0.3-0.9-0.6-1.3c0-0.1-0.1-0.1-0.1-0.1c0,0.1,0,0.2-0.1,0.4c-0.1,0.4-0.3,0.7-0.5,1c-0.3,0.4-0.6,0.7-1,1
			C24.7,30.6,24.3,30.8,23.8,31z"/>
	</g>
</g>
<g id="Oven_Fresh" class="st0">
	<g class="st1">
		<path class="st2" d="M37.6,19.9c0-3.4-6.7-6.1-15.2-6.1S7.3,16.4,7.3,19.9c0,0.7,0.2,1.3,0.7,1.9l1.4,4.1c0,0,0.4,1.5,1,1.9
			c1.1,0.8,4.8,2.7,12,2.7c6.9,0,10.7-1.8,12-2.6c0.7-0.4,1.3-2,1.3-2l1.1-3.9C37.3,21.3,37.6,20.6,37.6,19.9z M22.4,14.5
			c7.8,0,14.5,2.5,14.5,5.4c0,2.9-6.6,5.4-14.5,5.4S8,22.8,8,19.9C8,17,14.6,14.5,22.4,14.5z"/>
		<path class="st2" d="M22.4,24.1c8.6,0,13.3-2.8,13.3-4.2c0-1.4-4.7-4.2-13.3-4.2S9.2,18.5,9.2,19.9C9.2,21.3,13.9,24.1,22.4,24.1z
			 M22.4,16.4c8.5,0,12.5,2.8,12.5,3.5c0,0.7-4,3.5-12.5,3.5S9.9,20.6,9.9,19.9C9.9,19.2,13.9,16.4,22.4,16.4z"/>
		<path class="st2" d="M21.3,20.2c0.1,0.2,0.4,0.3,0.6,0.2l3.2-1.8c0.2-0.1,0.3-0.4,0.2-0.6c-0.1-0.2-0.4-0.3-0.6-0.2l-3.2,1.8
			C21.3,19.7,21.2,20,21.3,20.2z"/>
		<path class="st2" d="M18.7,20.4l3.2-1.8c0.2-0.1,0.3-0.4,0.2-0.6c-0.1-0.2-0.4-0.3-0.6-0.2l-3.2,1.8c-0.2,0.1-0.3,0.4-0.2,0.6
			C18.2,20.4,18.5,20.5,18.7,20.4z"/>
	</g>
</g>
<g id="Dry_Cleaning" class="st0">
	<path class="st3" d="M23.8,13.3c-0.1-1.2-0.6-2.1-2.9-3.3c-1.2-0.6-1.4-1.3-1.4-2.4c0-1.5,1.2-2.8,2.8-2.8c1.1,0,2.1,0.6,2.5,1.7
		c0.2,0.4,0.6,0.6,1,0.4c0.4-0.2,0.6-0.6,0.4-1.1c-0.7-1.6-2.3-2.6-4-2.6c-2.4,0-4.4,2-4.4,4.4c0,1.3,0.3,2.8,2.3,3.8
		c1.5,0.8,1.9,1.2,2,1.9l-11,6.8v20.4h23.5V20L23.8,13.3z M24,38.8h-2.1v-2.1H24V38.8z M24,34.6h-2.1v-2.1H24V34.6z M24,30.5h-2.1
		v-2.1H24V30.5z M24,26.3h-2.1v-2.1H24V26.3z M24,22.2h-2.1v-2.1H24V22.2z M24,18h-2.1v-2.1H24V18z M32.5,21.2l-1.2,2
		c-0.2,0.3-0.4,0.4-0.6,0.3l-4.5-2.7c-0.2-0.1-0.2-0.4,0-0.7l1.2-2c0.2-0.3,0.4-0.4,0.6-0.3l4.5,2.7C32.7,20.6,32.7,20.9,32.5,21.2z
		"/>
</g>
<g id="Cake_Shop" class="st0">
	<g class="st1">
		<path class="st2" d="M36.9,9.9V9.8H10v0.1l0,0v15.6l13,9.1l0.4,0.3l0.4-0.3l13-9.1L36.9,9.9L36.9,9.9z M23,25.3l-12.2-8.4v-5.3
			L23,20V25.3z M10.8,25.1V20L23,28.4v5.2L10.8,25.1z M23.4,19.3l-12.4-8.6h24.8L23.4,19.3z M36.1,25.1l-12.2,8.5V20l12.2-8.5V25.1z
			"/>
		<circle class="st2" cx="20.4" cy="14.6" r="0.9"/>
		<circle class="st2" cx="27.3" cy="14.5" r="0.9"/>
		<circle class="st2" cx="23.9" cy="12.7" r="0.9"/>
		<circle class="st2" cx="30.8" cy="12.4" r="0.9"/>
		<circle class="st2" cx="26.9" cy="21" r="0.9"/>
		<circle class="st2" cx="26.9" cy="24.9" r="0.9"/>
		<circle class="st2" cx="26.9" cy="28.7" r="0.9"/>
		<circle class="st2" cx="31" cy="18.7" r="0.9"/>
		<circle class="st2" cx="31" cy="22.7" r="0.9"/>
		<circle class="st2" cx="31" cy="26.4" r="0.9"/>
		<circle class="st2" cx="34.7" cy="15.6" r="0.9"/>
		<circle class="st2" cx="34.7" cy="19.6" r="0.9"/>
		<circle class="st2" cx="34.7" cy="23.3" r="0.9"/>
		<circle class="st2" cx="23.9" cy="16.8" r="0.9"/>
		<circle class="st2" cx="17.1" cy="12.2" r="0.9"/>
	</g>
</g>
<g id="Nutmeg_Clothing" class="st0">
	<g class="st1">
		<polygon class="st2" points="23,19.3 24.4,24.1 24.4,24.1 19.8,20.3 18.5,20.6 20.6,27.8 22,27.4 20.6,22.6 20.6,22.6 25.2,26.4 
			26.5,26.1 24.4,18.9 		"/>
		<path class="st2" d="M31.9,21.9l5.2-5.2l-7-7l0,0l0,0h-3C27,12.1,24.9,14,22.4,14c-2.5,0-4.5-1.9-4.7-4.4H14l0,0.3l0-0.3l-7,7
			l5.2,5.2l1.2-1.2l-0.8,15h19.6L31.1,21L31.9,21.9z M35.4,16.3l0.4,0.4L32,20.4l-0.4-0.4L35.4,16.3z M12.2,20.4l-3.7-3.7l0.4-0.4
			l3.7,3.7L12.2,20.4z M13.6,34.7l0.8-15.3c2.3-3.7,1.1-7.2,0.4-8.6l0-0.2h2c0.6,2.6,2.9,4.4,5.5,4.4s4.9-1.8,5.5-4.4h1.4l0,0.2
			c-0.7,1.4-2,5.2,0.7,9.1l1.2,14.9H13.6z"/>
	</g>
</g>
<g id="Cafe" class="st0">
	<g class="st1">
		<polygon class="st2" points="30.1,22.2 30.1,22.2 30.1,22.2 		"/>
		<path class="st2" d="M20.2,19.1l-7-7.2l-0.4-0.4c-0.7-0.7-1.8-0.7-2.5,0c-0.1,0.1-0.3,0.3-0.4,0.4L9.7,12c-0.9,0.9-0.9,2.4,0,3.3
			l6.2,6.3l0.8,0.8c0.7,0.7,1.6,0.9,2.5,0.6l10.6,10.8c0.7,0.7,1.8,0.7,2.5,0c0.7-0.7,0.7-1.8,0-2.5L20.2,19.1z"/>
		<path class="st2" d="M12.5,30.9c-0.7,0.7-0.7,1.8,0,2.5c0.7,0.7,1.8,0.7,2.5,0l6.9-6.8l-2.5-2.5L12.5,30.9z"/>
		<path class="st2" d="M36,14.5c-0.3-0.3-0.9-0.4-1.2,0l-5.2,5.1l-0.8-0.8l5.2-5.1c0.3-0.3,0.4-0.9,0-1.2c-0.3-0.3-0.9-0.4-1.2,0
			l-5.2,5.1l-0.8-0.8l5.2-5.1c0.3-0.3,0.3-0.9,0-1.2c-0.3-0.3-0.9-0.3-1.2,0L24.8,16c-0.1,0.1-0.2,0.2-0.2,0.3c0,0,0,0,0,0
			c-0.1,0.3-0.1,0.6,0.1,0.8c0,0,0.1,0.1,0.1,0.1l0.8,0.8l-2.8,2.8l2.5,2.5l2.8-2.8l0.8,0.8c0,0,0.1,0.1,0.1,0.1
			c0.2,0.2,0.5,0.2,0.8,0.1c0,0,0,0,0,0c0.1,0,0.2-0.1,0.3-0.2l5.8-5.7C36.3,15.4,36.3,14.8,36,14.5z"/>
	</g>
</g>
<g id="Recycling_Centre" class="st0">
	<g class="st1">
		<path class="st2" d="M25.4,16.1l-2.9,2l3.8-0.5l0.2,0l0.5-0.1l3.3-0.4l1.4-2.9l0.2-0.3l1.9-3.8l-2.9,2l-2.5-4.3
			c-0.7-1-1.4-1.5-2.1-1.6c-1.2-0.1-2.5,1-3.4,2.1c-0.3,0.4-0.6,0.9-0.9,1.3c0.2,0.3,0.3,0.7,0.6,1.1C23.3,12.3,24.3,14.1,25.4,16.1
			z"/>
		<path class="st2" d="M22.4,8.1c0.7-0.9,1.6-1.8,2.6-2.1h-8c-0.3,0.2-0.5,0.4-0.6,0.5l-0.1,0.1L12,14.3l4.9,3.1
			c0.3-0.5,0.7-1.2,1.1-1.9l2.8-4.9c0.1-0.2,0.3-0.5,0.6-1l0,0l0.1-0.1C21.8,9,22.1,8.5,22.4,8.1z"/>
		<path class="st2" d="M33,29.8c-0.4,0-0.8-0.1-1.2-0.1c-1.6-0.1-3.7-0.1-6-0.1l-0.3-3.5L24,29.6l-0.1,0.2l-0.2,0.4l-1.3,3.1
			l1.8,2.7l0.2,0.3l2.3,3.5l-0.3-3.5h5c1.2-0.1,2-0.4,2.4-1c0.7-1,0.3-2.7-0.2-4C33.4,30.7,33.2,30.2,33,29.8z"/>
		<path class="st2" d="M38.7,27.5c0-0.4-0.1-0.6-0.1-0.7l-0.1-0.1l-4.5-7.7l-5.2,2.7c0.3,0.5,0.7,1.2,1.1,1.9l2.8,4.9
			c0.1,0.2,0.3,0.5,0.6,1h0l0.1,0.2c0.2,0.4,0.4,0.9,0.7,1.4c0.4,1.1,0.8,2.3,0.5,3.3L38.7,27.5z"/>
		<path class="st2" d="M9.7,29.8c0.5,0.1,1.1,0.1,1.5,0.1c0.2-0.3,0.4-0.7,0.7-1c0.9-1.3,1.9-3.1,3.1-5.1l3.2,1.5l-2.3-3l-0.1-0.1
			l-0.3-0.4l-2-2.7l-3.2,0.2l-0.3,0l-4.2,0.3L9,21l-2.5,4.3c-0.6,1.1-0.6,1.9-0.3,2.6C6.8,29.1,8.3,29.6,9.7,29.8z"/>
		<path class="st2" d="M18.1,30.5h-5.6c-0.2,0-0.6,0-1.2,0l0,0l-0.2,0c-0.4,0-1-0.1-1.6-0.2c-1.1-0.2-2.3-0.5-3.2-1.2l4,6.9
			c0.3,0.2,0.6,0.3,0.7,0.3h0.1h8.9l0.2-5.8C19.8,30.6,19,30.6,18.1,30.5z"/>
	</g>
</g>
<g id="Petrol" class="st0">
	<path class="st3" d="M37.5,14.7c-5-1.3-5.8-1.2-6.2-1.2c-0.8,0.1-4,0.3-7.1,0.5c-0.2-0.2-0.5-0.3-0.8-0.3l-1.1,0.2l-1-2.7l-0.9,0.3
		l0.9,2.6l-0.6,0.1c-0.2-0.4-0.7-0.6-1.2-0.5l-0.9,0.2c-0.2-0.4-0.3-0.7-0.4-0.8c-0.2-0.4-0.5-1-1.7-0.7c-1.2,0.3-2.9,0.3-4.7,2.4
		l-0.2,0.2c-0.5,0.6-1.4,0.7-2,0.1c-0.6-0.5-1.5-0.4-2.1,0.2l-2.1,2.4c-0.6,0.6-0.5,1.6,0,2.1c0.6,0.5,0.6,1.4,0,2.1l-1.7,2
		c-1.1,1.3-1.2,3.4,0,4.7l3.7,4.4c1.1,1.3,2.9,1.3,4.1,0c2.6-2.9,6.8-7.8,7.8-8.9c1.5-1.7,1.2-3.2,0.7-4.7c0,0,0,0,0,0l0.3-0.1
		c0.5-0.1,0.9-0.5,0.9-1l1.2-0.2l0.9,2.7l0.9-0.3l-0.9-2.6l0.5-0.1c0.3-0.1,0.5-0.3,0.6-0.5c3-0.5,6-1.1,6.8-1.1
		c0.9-0.1,5.9,0.7,9.9,1.9l0.6-2C42,16,39.8,15.3,37.5,14.7z M14.2,26.9l-3,3.4c-0.8,0.9-2,0.9-2.7,0l-2.2-2.6
		c-0.7-0.9-0.9-2.2-0.2-2.9c0.3-0.4,0.7-0.8,1.1-1.3c0.9-1,2.4-1.4,3.8-1.1c-0.1,0.1-0.2,0.1-0.2,0.2c-0.8,0.9-2.3,3.1-3,5.2
		c-0.1,0.3,0,0.6,0.2,0.7C8,28.6,8,28.7,8.1,28.7c0.4,0.1,0.8-0.1,0.9-0.4c0.6-1.9,2.1-4,2.7-4.6c0.2-0.2,0.3-0.2,0.6,0
		c0,0,0.1,0,0.1,0c0.3,0.1,1,0.6,1,0.6c0.2,0.1,0.4,0.1,0.6,0c0,0,0,0,0,0C14.9,24.8,15,26,14.2,26.9z"/>
</g>
<g id="Car_Wash" class="st0">
	<g class="st1">
		<path class="st2" d="M36.6,29.5c-0.1-0.2-0.2-0.5-0.4-0.7c0,0,0,0-0.1-0.1c-0.4-0.4-1.1-0.8-2.1-1.2c-0.4-1.2-1.5-4.9-1.7-5.1
			c0,0,0,0,0-0.1c-1.1-1.6-4.8-2.8-9.1-2.8c-4.1,0-7.5,1-8.9,2.5c-0.4,0.3-1.6,4.3-2,5.5c-0.7,0.3-1.2,0.5-1.7,0.8
			c-0.6,0.3-1,1-1,1.7V34c0,1.1,0.9,2,2,2H12v2.4c0,1,0.8,1.8,1.8,1.8c1,0,1.8-0.8,1.8-1.8V36h15.2v2.4c0,1,0.8,1.8,1.8,1.8
			c1,0,1.8-0.8,1.8-1.8V36h0.3c1.1,0,2-0.9,2-2v-3.9C36.7,29.9,36.7,29.7,36.6,29.5z M16,23.3c1-0.9,3.8-1.8,7.3-1.8
			c4,0,6.7,1.1,7.4,1.9c0.2,0.5,0.6,1.9,1.1,3.5c-2.3-0.5-5.3-0.9-8.5-0.9c-3.3,0-6.3,0.3-8.6,0.9C15.2,25.3,15.7,23.8,16,23.3z
			 M13.9,34.3c-1.2,0-2.2-1-2.2-2.2s1-2.2,2.2-2.2c1.2,0,2.2,1,2.2,2.2S15.1,34.3,13.9,34.3z M32.6,34.3c-1.2,0-2.2-1-2.2-2.2
			s1-2.2,2.2-2.2s2.2,1,2.2,2.2S33.8,34.3,32.6,34.3z"/>
		<ellipse transform="matrix(0.1743 -0.9847 0.9847 0.1743 -0.258 35.3243)" class="st2" cx="20.9" cy="17.8" rx="0.8" ry="0.8"/>
		<ellipse transform="matrix(0.1738 -0.9848 0.9848 0.1738 2.6547 33.6605)" class="st2" cx="21.4" cy="15.2" rx="0.8" ry="0.8"/>
		<ellipse transform="matrix(0.1737 -0.9848 0.9848 0.1737 5.5595 31.9858)" class="st2" cx="21.8" cy="12.7" rx="0.8" ry="0.8"/>
		<ellipse transform="matrix(0.1737 -0.9848 0.9848 0.1737 8.4619 30.31)" class="st2" cx="22.3" cy="10.1" rx="0.8" ry="0.8"/>
		<ellipse transform="matrix(0.3425 -0.9395 0.9395 0.3425 -4.8908 27.9382)" class="st2" cx="17.5" cy="17.5" rx="0.8" ry="0.8"/>
		<ellipse transform="matrix(0.3419 -0.9397 0.9397 0.3419 -1.9945 27.1772)" class="st2" cx="18.4" cy="15" rx="0.8" ry="0.8"/>
		<ellipse transform="matrix(0.3417 -0.9398 0.9398 0.3417 0.8979 26.4065)" class="st2" cx="19.3" cy="12.6" rx="0.8" ry="0.8"/>
		<ellipse transform="matrix(0.3424 -0.9395 0.9395 0.3424 3.776 25.6193)" class="st2" cx="20.2" cy="10.1" rx="0.8" ry="0.8"/>
		<ellipse transform="matrix(0.9848 -0.1737 0.1737 0.9848 -2.7027 4.7504)" class="st2" cx="25.8" cy="17.8" rx="0.8" ry="0.8"/>
		<ellipse transform="matrix(0.9849 -0.173 0.173 0.9849 -2.2564 4.6144)" class="st2" cx="25.3" cy="15.2" rx="0.8" ry="0.8"/>
		<ellipse transform="matrix(0.9848 -0.1736 0.1736 0.9848 -1.8234 4.5121)" class="st2" cx="24.9" cy="12.7" rx="0.8" ry="0.8"/>
		<ellipse transform="matrix(0.9848 -0.1738 0.1738 0.9848 -1.3859 4.4005)" class="st2" cx="24.4" cy="10.1" rx="0.8" ry="0.8"/>
		<ellipse transform="matrix(0.9396 -0.3422 0.3422 0.9396 -4.2129 11.0508)" class="st2" cx="29.2" cy="17.5" rx="0.8" ry="0.8"/>
		<ellipse transform="matrix(0.9394 -0.3428 0.3428 0.9394 -3.4308 10.6184)" class="st2" cx="28.3" cy="15" rx="0.8" ry="0.8"/>
		<ellipse transform="matrix(0.9396 -0.3422 0.3422 0.9396 -2.6432 10.1447)" class="st2" cx="27.4" cy="12.6" rx="0.8" ry="0.8"/>
		<ellipse transform="matrix(0.9395 -0.3424 0.3424 0.9395 -1.8586 9.6973)" class="st2" cx="26.5" cy="10.1" rx="0.8" ry="0.8"/>
		<path class="st2" d="M25.4,6.2V4.8c0-0.4-0.3-0.6-0.6-0.6h-3c-0.4,0-0.6,0.3-0.6,0.6v1.4c-1.3,0.5-2.2,1.4-2.5,2.4h9.3
			C27.6,7.5,26.7,6.6,25.4,6.2z"/>
	</g>
</g>
<g id="Pharmacy" class="st0">
	<polygon class="st3" points="35.5,19.8 24.9,19.8 24.9,9.2 19.2,9.2 19.2,19.8 8.6,19.8 8.6,25.6 19.2,25.6 19.2,36.2 24.9,36.2 
		24.9,25.6 35.5,25.6 	"/>
</g>
<g id="Pizza_Counter" class="st0">
	<g class="st1">
		<path class="st2" d="M25.6,29.8l-3.7-7.9l18.4,4.5l0.1-0.2c0,0,0,0,0,0l0,0c0,0,0,0,0,0c1.3-1.5,2-3.1,2-4.8
			C42.5,15.1,33,10,21.3,10C9.7,10,0.2,15.1,0.2,21.4s9.5,11.5,21.1,11.5c1.7,0,3.3-0.1,4.9-0.3l0,0c0,0,0,0,0,0c0,0,0.1,0,0.1,0
			l0,0c0.4-0.1,0.6-0.3,0.7-0.7c0.2-0.6,0-1.4-0.5-1.8C26.4,29.8,26,29.7,25.6,29.8z M25,30c-1.2,0.1-2.4,0.2-3.6,0.2
			c-10,0-18.1-3.9-18.1-8.7s8.1-8.7,18.1-8.7s18.1,3.9,18.1,8.7c0,0.9-0.3,1.8-0.9,2.6c-0.3,0.1-0.7,0.4-1.1,1L20.7,21L25,30z
			 M39,24.7C39,24.7,39,24.7,39,24.7c0.4,0,0.8,0.3,1,0.7c0,0.1,0.1,0.2,0.1,0.3l-1.9-0.5C38.4,24.9,38.6,24.7,39,24.7z M26.5,31.6
			c-0.1,0.2-0.2,0.3-0.3,0.3c-1.6,0.2-3.3,0.3-4.9,0.3c-11.3,0-20.5-4.8-20.5-10.8s9.2-10.8,20.5-10.8c11.3,0,20.5,4.8,20.5,10.8
			c0,1.3-0.4,2.5-1.2,3.6c0,0,0,0,0,0c-0.2-0.4-0.7-0.8-1.2-1c0.5-0.8,0.8-1.7,0.8-2.6c0-5.2-8.4-9.4-18.7-9.4S2.6,16.3,2.6,21.4
			s8.4,9.4,18.7,9.4c1.4,0,2.8-0.1,4.2-0.2l0.5-0.1l0-0.1c0.1,0,0.2,0,0.3,0.1C26.5,30.8,26.6,31.3,26.5,31.6z"/>
		<path class="st2" d="M43.9,27.7c-0.7-0.3-1.6-0.2-2.2,0.7L25,24.3l5.4,11.6l0.2,0c0,0,0,0,0,0c0.1,0,0.3,0,0.4-0.1
			c6.1-0.9,11-3.1,13.7-6.2l0.1-0.1C45.1,28.8,44.6,28,43.9,27.7z M41.1,28.9c-2.7,2.1-6.4,3.4-10.5,3.9l0,0c-0.2,0-0.5,0.1-0.8,0.3
			l-3.7-7.8L41.1,28.9z M30.1,33.7c0.5-0.3,0.8-0.3,1-0.2c0.2,0.2,0.3,0.7,0.1,1.1c0,0.1-0.2,0.4-0.5,0.5L30.1,33.7z M31.8,35
			c0,0,0.1-0.1,0.1-0.1c0.2-0.5,0.2-1.1-0.1-1.6c4-0.6,7.6-2.1,10.1-4.2l0.1-0.2l0,0c0.4-0.7,1-0.8,1.5-0.6c0.4,0.2,0.7,0.5,0.6,0.9
			C41.8,32,37.2,34.1,31.8,35z"/>
		<ellipse class="st2" cx="27" cy="15.2" rx="1.5" ry="0.7"/>
		<ellipse class="st2" cx="27.7" cy="19.6" rx="1.7" ry="0.8"/>
		<ellipse class="st2" cx="36.1" cy="29.3" rx="1.5" ry="0.7"/>
		<ellipse class="st2" cx="30.2" cy="28" rx="1.5" ry="0.7"/>
		<ellipse class="st2" cx="34.9" cy="19.8" rx="1.5" ry="0.7"/>
		<ellipse class="st2" cx="17.9" cy="15.2" rx="1.6" ry="0.8"/>
		<ellipse class="st2" cx="17.2" cy="20.5" rx="1.5" ry="0.7"/>
		<ellipse class="st2" cx="9.5" cy="18.3" rx="1.5" ry="0.7"/>
		<ellipse class="st2" cx="10.3" cy="23.4" rx="1.7" ry="0.9"/>
		<ellipse class="st2" cx="18.1" cy="27.1" rx="1.5" ry="0.7"/>
		<polygon class="st2" points="15,16.7 13.8,17.4 14.3,18 15.5,17.3 		"/>
		<polygon class="st2" points="11.9,20.8 13.7,21.2 13.9,20.9 12.1,20.5 		"/>
		<polygon class="st2" points="34.7,22.3 34.7,22.6 36.5,23 36.5,22.7 		"/>
		<polygon class="st2" points="13.4,15.1 11.6,15.7 11.6,15.9 13.3,15.4 		"/>
		<polygon class="st2" points="33.9,16.1 32.2,16.7 32.3,16.9 34,16.4 		"/>
		<polygon class="st2" points="19.1,25.1 19.3,25.4 20.7,24.3 20.5,24 		"/>
		<polygon class="st2" points="23.8,17.6 24,17.8 25.4,16.7 25.2,16.5 		"/>
		<rect x="32.9" y="28.2" transform="matrix(0.8924 -0.4513 0.4513 0.8924 -9.597 18.0473)" class="st2" width="0.3" height="1.8"/>
		<polygon class="st2" points="30.7,21.4 31,22 32.2,21.3 31.9,20.7 		"/>
		<polygon class="st2" points="5.9,21.1 7,21.9 7.5,21.3 6.4,20.5 		"/>
		<polygon class="st2" points="15.8,23.1 15.3,23.7 16.4,24.5 16.9,23.9 		"/>
		
			<rect x="11.7" y="25.8" transform="matrix(0.9996 -2.718511e-02 2.718511e-02 0.9996 -0.7068 0.3471)" class="st2" width="1.3" height="0.7"/>
		
			<rect x="21.8" y="14.6" transform="matrix(0.9996 -2.727389e-02 2.727389e-02 0.9996 -0.4006 0.6174)" class="st2" width="1.3" height="0.7"/>
		
			<rect x="29.7" y="16.5" transform="matrix(0.5706 -0.8212 0.8212 0.5706 -1.2049 32.0691)" class="st2" width="0.7" height="1.3"/>
		
			<rect x="21.4" y="18.4" transform="matrix(0.5705 -0.8213 0.8213 0.5705 -6.3603 26.0214)" class="st2" width="0.7" height="1.3"/>
		
			<rect x="30.6" y="30.4" transform="matrix(0.4873 -0.8732 0.8732 0.4873 -10.8103 43.0161)" class="st2" width="1.3" height="0.7"/>
	</g>
</g>
<g id="Photo_Processing" class="st0">
	<g class="st1">
		<rect x="9" y="17.4" class="st2" width="3.6" height="11.9"/>
		<path class="st2" d="M22.7,19.2c-2.7,0-4.9,2.2-4.9,4.9c0,2.7,2.2,4.9,4.9,4.9c2.7,0,4.9-2.2,4.9-4.9
			C27.7,21.4,25.5,19.2,22.7,19.2z M23.3,21.1c-1.9,0-3.5,1.6-3.5,3.5c0,0.9,0.4,1.8,1,2.4c-1-0.6-1.6-1.7-1.6-2.9
			c0-1.9,1.6-3.5,3.5-3.5c1,0,1.9,0.4,2.5,1.1C24.7,21.3,24.1,21.1,23.3,21.1z"/>
		<path class="st2" d="M34.5,14.2h-7.1v-0.3c0-0.9-0.7-1.6-1.6-1.6h-6.5c-0.9,0-1.6,0.7-1.6,1.6v0.3H16c-0.2-0.7-0.8-1.2-1.5-1.2
			h-2.4c-0.7,0-1.3,0.5-1.5,1.2h-0.1c-0.9,0-1.6,0.7-1.6,1.6v0.5h4.2c0.3,0,0.6,0.3,0.6,0.6v13c0,0.3-0.3,0.6-0.6,0.6H9V31
			c0,0.9,0.7,1.6,1.6,1.6h23.9c0.9,0,1.6-0.7,1.6-1.6V15.8C36,14.9,35.3,14.2,34.5,14.2z M22.7,30.6c-3.6,0-6.5-2.9-6.5-6.5
			c0-3.6,2.9-6.5,6.5-6.5c3.6,0,6.5,2.9,6.5,6.5C29.3,27.7,26.3,30.6,22.7,30.6z"/>
	</g>
</g>
<g id="Flowershop" class="st0">
	<g class="st1">
		<path class="st2" d="M25.2,32.8c-1.1-1.1-2.7-1.6-3.8-2.5c1.1,1.6,2.8,2.3,4.4,3.3c-0.1-1.5,0.1-3,0.6-4.4c-1,0.3-1.8,0.2-2.3-0.7
			c-0.5-0.7-0.3-1.5,0.2-2.2c-0.5-0.3-0.8-0.7-0.9-1.3c-0.1-0.4,0-0.8,0.3-1.2c0.5-0.7,1.3-1,2.2-0.7c0.5-1.1,1.2-1.5,2.1-1.4
			c0.9,0.2,1.4,0.8,1.5,2c0.6,0,1.1,0.1,1.4,0.6c0.2,0.3,0.4,0.6,0.5,1c0.2,0.9-0.3,1.5-1.4,2c0.3,0.9,0.1,1.7-0.7,2.2
			c-0.8,0.5-1.5,0.4-2.3-0.2c-0.4,1.1-0.6,2.2-0.5,3.4c1.3-1,2.9-1,4.4-1.1c-0.5-0.1-1.1-0.3-1.6-0.3c-0.5,0-1.1,0.1-1.7,0.2
			c0.4-0.7,1-1,1.7-1c0.6,0,1.2,0.1,1.7,0.3c0.8,0.2,1.6,0.6,2.3,0.9c-0.4,0.3-0.9,0.7-1.4,1.1c-0.3,0.2-0.6,0.5-0.9,0.8
			c-0.7,0.6-1.5,0.7-2.4,0.5c-0.6-0.1-1.1-0.6-1.3-1.3c-0.3,0.3-0.6,0.5-0.8,0.7c-0.1,0.1-0.1,0.3-0.1,0.4c0.1,0.6,0.2,1.2,0.3,1.9
			c-0.3,0-0.7,0-1,0c-0.1-0.4-0.1-0.7-0.2-1.1c-0.1-0.2-0.2-0.4-0.3-0.6c-0.3-0.4-0.4-0.4-0.8-0.2c-0.7,0.4-1.3,0.4-2,0.1
			c-0.9-0.5-1.5-1.2-1.8-2.2c-0.3-1-0.4-2-1-2.9c0.1,0,0.1,0,0.2,0c0.9,0.2,1.7,0.4,2.6,0.6c1,0.2,1.9,0.6,2.6,1.5
			C25.3,31.6,25.4,32.2,25.2,32.8z M25.4,26c0,1,0.8,1.8,1.7,1.8c1,0,1.8-0.8,1.8-1.8c0-1-0.8-1.8-1.8-1.8
			C26.2,24.2,25.4,25,25.4,26z"/>
		<path class="st2" d="M37,35.2c0.5,0,1,0,1.5,0c0.6,0,1.3,0.2,1.3,0.9c0,0.8-0.7,0.9-1.3,0.9c-3.3,0-6.6,0-9.9,0
			c-7.3,0-14.7,0-22,0c-0.5,0-1,0-1.4-0.1c-0.3-0.1-0.6-0.5-0.6-0.8c0-0.2,0.4-0.7,0.6-0.7c0.7-0.2,1.5-0.2,2.2-0.3
			c0-4.8,0-9.6,0-14.5c-0.4-0.1-0.8-0.2-1.2-0.3c-1-0.3-1.7-1-1.9-2c-0.1-0.4-0.1-0.9,0.1-1.3c1.2-2.7,2.5-5.3,3.8-8
			c0.2-0.4,0.4-0.5,0.9-0.5c8.8,0,17.5,0,26.3,0c0.5,0,0.7,0.2,0.9,0.6c1.3,2.7,2.6,5.4,3.9,8c0.4,0.8,0.1,1.5-0.4,2
			c-0.6,0.6-1.4,0.9-2.1,1.3c-0.2,0.2-0.6,0.4-0.6,0.6c0,4.6,0,9.2,0,13.8C36.9,35,36.9,35,37,35.2z M35,35.1c0-0.1,0.1-0.2,0.1-0.3
			c0-4.7,0-9.4,0-14.1c0-0.2-0.1-0.4-0.3-0.5c-0.7-0.6-1.4-1.1-2-1.7c-0.5,1.3-1.7,1.9-3.2,2c-1.7,0.1-3.1-0.5-3.8-2.3
			c-0.7,1.6-1.9,2.3-3.6,2.3c-1.6,0-2.9-0.6-3.7-2.2c-0.2,0.4-0.4,0.8-0.4,1.2c0,4.9,0,9.8,0,14.7c0,0.3,0,0.5,0,0.8
			C23.7,35.1,29.3,35.1,35,35.1z M16.2,20.7c-1-0.2-2-0.2-2.8-0.5c-0.8-0.4-1.5-1.1-2.1-1.5c-0.4,0.4-0.9,1-1.5,1.3
			c-0.5,0.3-0.6,0.6-0.6,1.1c0,4.4,0,8.8,0,13.2c0,0.3,0,0.5,0,0.8c2.4,0,4.7,0,7,0C16.2,30.2,16.2,25.4,16.2,20.7z M25.5,10
			c0,0.3,0,0.5,0,0.6c0.1,1.7,0.1,3.4,0.4,5.1c0.1,0.8,0.6,1.7,1.2,2.4c0.9,1.1,2.8,1.4,3.9,0.7c1-0.5,1.7-2.2,1.4-3.3
			c-0.5-1.7-1-3.4-1.6-5.1c-0.1-0.2-0.3-0.4-0.5-0.4C28.7,10,27.1,10,25.5,10z M18.7,10c-1.7,0-3.3,0-4.9,0c-0.2,0-0.4,0.3-0.5,0.4
			c-0.6,1.6-1.1,3.2-1.6,4.8c-0.5,1.5,0.8,3.6,2.3,3.9c1.7,0.4,3.7-1,4.1-2.9c0.2-0.8,0.2-1.6,0.3-2.5C18.6,12.6,18.6,11.4,18.7,10z
			"/>
		<path class="st2" d="M13.5,27.6c0-0.4,0-0.8,0-1.2c0-0.5,0.3-0.8,0.8-0.8c0.5,0,0.8,0.3,0.8,0.8c0,0.9,0.1,1.8,0,2.6
			c0,0.3-0.5,0.6-0.8,0.9c-0.3-0.3-0.7-0.5-0.8-0.9C13.4,28.6,13.5,28.1,13.5,27.6z"/>
	</g>
</g>
<g id="Coffee_to_go" class="st0">
	<g class="st1">
		<path class="st2" d="M33,21.3l-0.8-2.8c-0.1-0.5-0.6-0.8-1.1-0.8h-0.6l-0.7-2.4c-0.1-0.5-0.6-0.8-1.1-0.8H16.3
			c-0.5,0-0.9,0.3-1.1,0.8l-0.7,2.4h-0.6c-0.5,0-0.9,0.3-1.1,0.8L12,21.3c-0.1,0.3,0,0.7,0.2,1c0.2,0.3,0.5,0.5,0.9,0.5h0.5l0.4,4.4
			c-0.1,0-0.2,0.1-0.3,0.2c-0.1,0.2-0.2,0.4-0.2,0.6l0.8,8.3c0,0.3,0.3,0.6,0.6,0.6l0.5,5.1c0.1,0.6,0.5,1,1.1,1h12.1
			c0.6,0,1.1-0.4,1.1-1l0.5-5.1c0.3-0.1,0.5-0.3,0.6-0.6l0.8-8.3c0-0.2,0-0.4-0.2-0.6c-0.1-0.1-0.2-0.1-0.3-0.2l0.4-4.4H32
			c0.4,0,0.7-0.2,0.9-0.5C33.1,22,33.1,21.6,33,21.3z M16.9,16.5h11.2l0.4,1.3h-12L16.9,16.5z M27.9,41.1H17.1l-0.4-4.2h11.5
			L27.9,41.1z M22.1,31.5c-1.6,0.6-2.5,1.4-2.9,2.2c-0.3-1.1,0.2-2.6,1.4-3.7c0.9-0.9,2.1-1.4,3.1-1.4c0.5,0,1,0.2,1.4,0.5
			C24.7,29.7,24,30.9,22.1,31.5z M25.1,31.3c0.3-0.3,0.6-0.7,0.8-1c0.3,1.1-0.2,2.6-1.3,3.8C23,35.5,21.1,35.9,20,35
			c0.2-0.6,0.8-1.6,2.7-2.2C23.6,32.4,24.4,31.9,25.1,31.3z M29.2,27.1H15.8l-0.4-4.4h14.2L29.2,27.1z M14.1,20.9l0.4-1.2h16.1
			l0.4,1.2H14.1z"/>
		<path class="st2" d="M18,12c-0.4,0.2-0.5,0.6-0.3,1c0.1,0.2,0.4,0.4,0.7,0.4c0.1,0,0.2,0,0.3-0.1c0.2-0.1,1.6-0.9,2-2.3
			c0.2-0.8,0.1-1.6-0.3-2.4l-0.3-0.5c-0.1-0.2-0.2-0.4-0.3-0.6l-0.3,0.2l0.3-0.3l-0.3-0.5c-0.1-0.2-0.2-0.3-0.3-0.5
			C19.1,6.3,19.1,6.1,19,6c-0.1-0.1-0.1-0.3-0.1-0.4c0-0.1,0-0.2,0-0.4s0-0.2,0-0.3c0-0.1,0.1-0.2,0.1-0.4c0-0.1,0.1-0.1,0.1-0.2
			l0.1-0.2c0,0,0.1-0.1,0.1-0.1l0.1-0.4l-0.3-0.2c-0.1,0-0.2-0.1-0.4,0l-0.1,0.1l-0.1,0.2c-0.1,0.1-0.1,0.2-0.2,0.2
			c-0.1,0.2-0.2,0.4-0.3,0.6c-0.1,0.2-0.1,0.4-0.2,0.5c0,0.2-0.1,0.4-0.1,0.5c0,0.2,0,0.4,0,0.5c0,0.2,0.1,0.3,0.1,0.5
			C17.9,6.8,17.9,7,18,7.2c0.1,0.2,0.2,0.4,0.2,0.5c0.1,0.2,0.2,0.4,0.3,0.5l0.6,1.1c0.2,0.4,0.3,0.9,0.2,1.3C19.1,11.4,18,12,18,12
			z"/>
		<path class="st2" d="M21.6,10.9c-0.4,0.2-0.5,0.6-0.3,1c0.1,0.2,0.4,0.4,0.7,0.4c0.1,0,0.2,0,0.3-0.1c0.1,0,1.6-0.8,2.1-2.3
			c0.2-0.8,0.1-1.6-0.3-2.4l-0.9-1.6c-0.1-0.2-0.2-0.3-0.3-0.5c-0.1-0.1-0.1-0.3-0.2-0.4c-0.1-0.1-0.1-0.3-0.1-0.4
			c0-0.1,0-0.2,0-0.4c0-0.1,0-0.2,0-0.3c0-0.1,0.1-0.2,0.1-0.3c0-0.1,0.1-0.1,0.1-0.2l0.1-0.2c0,0,0.1-0.1,0.1-0.1L23,2.6l-0.3-0.2
			c-0.1,0-0.2-0.1-0.4,0l-0.1,0.1L22,2.7c-0.1,0.1-0.1,0.2-0.2,0.2c-0.1,0.2-0.2,0.4-0.3,0.5c-0.1,0.2-0.1,0.4-0.2,0.5
			c0,0.2-0.1,0.4-0.1,0.5c0,0.2,0,0.4,0,0.5c0,0.2,0.1,0.3,0.1,0.5c0.1,0.2,0.1,0.3,0.2,0.5c0.1,0.2,0.2,0.3,0.2,0.5
			C21.9,6.8,22,7,22.1,7.2l0.6,1.1C23,8.7,23,9.1,22.9,9.5C22.7,10.4,21.6,10.9,21.6,10.9z"/>
		<path class="st2" d="M25.4,12c-0.4,0.2-0.5,0.6-0.3,1c0.1,0.2,0.4,0.4,0.7,0.4c0.1,0,0.2,0,0.3-0.1c0.2-0.1,1.6-0.9,2.1-2.3
			c0.2-0.8,0.1-1.6-0.3-2.4l-0.9-1.6c-0.1-0.2-0.2-0.3-0.3-0.5c-0.1-0.1-0.1-0.3-0.2-0.4c-0.1-0.1-0.1-0.3-0.1-0.4
			c0-0.1,0-0.2,0-0.4c0-0.1,0-0.2,0-0.3c0-0.1,0.1-0.2,0.1-0.4c0-0.1,0.1-0.1,0.1-0.2l0.1-0.2c0,0,0.1-0.1,0.1-0.1l0.1-0.4l-0.3-0.2
			c-0.1,0-0.2-0.1-0.4,0L26,3.5l-0.2,0.2c-0.1,0.1-0.1,0.2-0.2,0.2c-0.1,0.2-0.2,0.4-0.3,0.6c-0.1,0.2-0.1,0.4-0.2,0.5
			c0,0.2-0.1,0.4-0.1,0.5c0,0.2,0,0.4,0,0.5c0,0.2,0.1,0.3,0.1,0.5c0.1,0.2,0.1,0.3,0.2,0.5c0.1,0.2,0.2,0.4,0.2,0.5
			c0.1,0.2,0.2,0.4,0.3,0.5l0.6,1.1c0.2,0.4,0.3,0.9,0.2,1.3C26.5,11.4,25.4,12,25.4,12z"/>
	</g>
</g>
<g id="Disabled_Access" class="st0">
	<g class="st1">
		<circle class="st2" cx="19.8" cy="10" r="3.3"/>
		<path class="st2" d="M27.7,30.9c-0.1-0.2-0.2-0.3-0.4-0.3c-0.2,0-0.3,0.1-0.4,0.3c-1,3.1-3.8,5.3-7.1,5.3c-4.1,0-7.5-3.3-7.5-7.5
			c0-2.7,1.3-5.1,3.6-6.5c0.1-0.1,0-0.2,0-0.4v-2.4c0-0.1,0.1-0.3,0-0.4c-0.1-0.1-0.2-0.1-0.3,0c-3.9,1.6-6.3,5.4-6.3,9.6
			c0,5.8,4.7,10.4,10.5,10.4c3.7,0,7.1-1.9,9-5.2c0.1-0.1,0.1-0.3,0-0.4L27.7,30.9z"/>
		<path class="st2" d="M34.5,32h-2.4c0,0-1.4-4.4-1.8-5.5C30,25.8,29.4,25,28.6,25H23v-4h5.3c0.7,0,1.3-0.3,1.3-1s-0.6-1-1.3-1h-5.5
			c0,0-0.4-4.9-3.2-4.9c-1.9,0-2.6,1.4-2.6,3.2v8.4c0,1.9,1.6,3.4,3.5,3.4c0.1,0,0.2-0.1,0.2-0.1c0.1,0,0.2,0,0.2,0h7l2.3,6h4.2
			c0.9,0,1.6-0.6,1.6-1.5C36.1,32.6,35.4,32,34.5,32z"/>
	</g>
</g>
<g id="Wifi" class="st0">
	<g class="st1">
		<circle class="st2" cx="22.5" cy="32" r="3"/>
		<path class="st2" d="M22.5,22.9c-2.7,0-5.2,1.2-6.9,3.2c-0.5,0.6-0.5,1.6,0.2,2.1c0.3,0.2,0.6,0.4,1,0.4c0.4,0,0.9-0.2,1.2-0.5
			c1.2-1.4,2.8-2.2,4.6-2.2s3.5,0.8,4.6,2.2c0.3,0.4,0.7,0.5,1.2,0.5c0.3,0,0.7-0.1,1-0.4c0.6-0.5,0.7-1.5,0.2-2.1
			C27.7,24.1,25.2,22.9,22.5,22.9z"/>
		<path class="st2" d="M38.6,18.4c-4-4.8-9.9-7.5-16.1-7.5s-12.1,2.7-16.1,7.5c-0.5,0.6-0.5,1.6,0.2,2.1c0.3,0.2,0.6,0.4,1,0.4
			c0.4,0,0.9-0.2,1.2-0.5c3.5-4.1,8.5-6.5,13.8-6.5s10.4,2.4,13.8,6.5c0.3,0.4,0.7,0.5,1.2,0.5c0.3,0,0.7-0.1,1-0.4
			C39.1,20,39.2,19.1,38.6,18.4z"/>
		<path class="st2" d="M22.5,16.9c-4.5,0-8.7,2-11.5,5.4c-0.5,0.6-0.5,1.6,0.2,2.1c0.3,0.2,0.6,0.4,1,0.4c0.4,0,0.9-0.2,1.2-0.5
			c2.3-2.7,5.7-4.3,9.2-4.3s6.9,1.6,9.2,4.3c0.3,0.4,0.7,0.5,1.2,0.5c0.3,0,0.7-0.1,1-0.4c0.6-0.5,0.7-1.5,0.2-2.1
			C31.2,18.9,27,16.9,22.5,16.9z"/>
	</g>
</g>
<g id="Rug_Doctor" class="st0">
	<g class="st1">
		<path class="st2" d="M29.2,22.9c-5.8,3.7-11.6,7.3-17.4,11c-0.4,0.3-0.6,0.3-1.1-0.1c-3.7-3.4-5.9-6.5-7.2-9.9
			c-0.8-2.3-1.1-4.6-0.6-6.8c0.2-1,0.7-1.8,1.5-2.2c0.4-0.2,0.8-0.3,1.3-0.3c0.5,0,1,0.1,1.6,0.4c3.6,1.7,4.4,5.6,3.7,8.5
			c-0.1,0.6-0.6,1.1-1.2,1.3c-0.7,0.3-1.4,0.2-2.1-0.3c-1.2-0.8-1.9-2-2.4-3.8c-0.2-0.8-0.2-1.7-0.2-2.6c0-0.3,0.1-0.5,0.2-0.6
			c0.1-0.1,0.4,0,0.7,0.2c0.9,0.6,1.4,1.5,1.7,2.8c0,0.1,0,0.3,0,0.3c-0.1,0-0.4,0-0.5-0.1c-0.2-0.1-0.3-0.3-0.5-0.5
			c-0.1-0.1-0.2-0.2-0.2-0.3l-0.2-0.2l-0.6,0.4L6,20.5c0.1,0.2,0.2,0.3,0.3,0.5c0.2,0.4,0.5,0.8,0.8,1.2c0.4,0.3,1.1,0.5,1.6,0.4
			c0.5-0.1,0.7-0.9,0.8-1.3c0-1.8-0.7-3.3-2.2-4.5c-0.8-0.6-1.6-0.8-2.3-0.4c-1,0.5-1.1,1.4-1.2,2c-0.1,2.5,0.6,4.8,2.3,6.7
			c1.3,1.5,3,1.9,4.7,1.2c1.1-0.4,2.1-0.9,3.2-1.4c0.7-0.3,1.5-0.7,2.2-1c3.4-1.5,6.8-2.9,10.2-4.4c-0.6-1.2-0.9-2.6-0.9-4
			c0-2,0.6-3.9,1.7-5.4c-2.5,0.3-5,0.7-7.5,1.1c-2.6,0.4-5.1,0.8-7.7,1.2c-2,0.3-4,0.6-6,1c-3,0.5-4.4,1.8-4.6,4.5
			c-0.2,3,0.3,5.8,1.5,8.3c1.4,2.9,3.5,5.6,6.2,8.2c0.2,0.2,0.4,0.4,0.6,0.5c0.6,0.6,1,0.9,1.4,0.9l3.8,2.3l0.7-0.5
			c-0.8-0.6-2.8-2.1-3-2.3c0.2,0.2,2.7,1.4,3.6,1.9l0.6-0.4c-0.8-0.6-2.8-2.1-3-2.3c0.2,0.2,2.7,1.4,3.6,1.9l0.6-0.4
			c-0.8-0.6-2.8-2.2-3-2.3c0.2,0.1,2.7,1.4,3.6,1.9l0.6-0.4c-0.7-0.5-2.6-2-3-2.3c0,0,0,0,0,0c0.4,0.2,2.7,1.4,3.6,1.9l0.6-0.4
			c-0.7-0.5-2.5-1.9-2.9-2.2c0,0,0,0,0,0c0.6,0.3,2.7,1.4,3.5,1.8l0.6-0.4c-0.6-0.5-2.3-1.8-2.9-2.2c0,0,0,0,0,0
			c0.7,0.4,2.7,1.4,3.5,1.8l0.6-0.4c-0.6-0.5-2.2-1.7-2.8-2.2c0,0,0,0,0,0c0.7,0.4,2.7,1.4,3.4,1.8l0.6-0.4
			c-0.6-0.4-2.1-1.6-2.8-2.1c0,0,0,0,0.1,0c0.8,0.4,2.6,1.4,3.3,1.7l0.6-0.4c-0.6-0.4-2-1.6-2.7-2.1c0,0,0,0,0.1,0
			c0.8,0.4,2.6,1.4,3.3,1.7l0.6-0.4c-0.5-0.4-2-1.5-2.7-2c0,0,0,0,0.1,0c0.9,0.5,2.6,1.3,3.2,1.7l0.6-0.4c-0.5-0.4-1.9-1.4-2.6-2
			c0,0,0.1,0,0.1-0.1c0.9,0.5,2.5,1.3,3.2,1.6l0.6-0.4c-0.5-0.4-1.8-1.4-2.6-2c0,0,0.1,0,0.1-0.1c0.9,0.5,2.5,1.3,3.1,1.6l0.6-0.4
			c-0.5-0.4-1.8-1.3-2.5-1.9c0,0,0.1,0,0.1-0.1c0.9,0.5,2.5,1.3,3,1.6l0.6-0.4c-0.5-0.4-1.7-1.3-2.5-1.9c0,0,0.1,0,0.1-0.1
			c0.9,0.5,2.4,1.3,3,1.6l0.6-0.4C32,25.5,30.8,24.6,30,24c0,0,0.1-0.1,0.1-0.1c0.9,0.5,2.4,1.2,2.9,1.5l0.6-0.4
			c-0.1-0.1-0.2-0.2-0.4-0.3C31.7,24.4,30.3,23.8,29.2,22.9z"/>
		<path class="st2" d="M35,7.3c-2.2,0-4.2,0.9-5.7,2.3c0,0,0,0,0,0c-0.6,0.5-1,1.2-1.4,1.9c0,0,0,0,0,0c-0.1,0.2-0.2,0.4-0.3,0.7
			c0,0,0,0,0,0c-0.1,0.2-0.2,0.4-0.2,0.7c0,0,0,0.1,0,0.1c-0.1,0.2-0.1,0.4-0.2,0.6c0,0,0,0.1,0,0.1c0,0.2-0.1,0.4-0.1,0.6
			c0,0.1,0,0.1,0,0.2c0,0.3,0,0.5,0,0.8c0,0.3,0,0.6,0.1,0.9c0,0.1,0,0.1,0,0.2c0,0.2,0.1,0.5,0.1,0.7c0,0,0,0.1,0,0.1
			c0.1,0.3,0.1,0.5,0.2,0.8c0,0,0,0,0,0c0.6,1.6,1.7,3,3.1,4l0,0c1.2,0.8,2.7,1.3,4.2,1.4c0.1,0,0.2,0,0.3,0c4.5,0,8.1-3.6,8.1-8.1
			C43.1,10.9,39.5,7.3,35,7.3z M36.3,16.6v4.7h-2.5v-4.7h-4.7v-2.5h4.7V9.4h2.5v4.7H41v2.5H36.3z"/>
	</g>
</g>
<g id="Parent_Child_Parking" class="st0">
	<g class="st1">
		<path class="st2" d="M22.5,8.9c-7.7,0-13.9,6.2-13.9,13.9s6.2,13.9,13.9,13.9c7.7,0,13.9-6.2,13.9-13.9S30.2,8.9,22.5,8.9z
			 M19.2,13.9C19.2,13.9,19.2,13.9,19.2,13.9L19.2,13.9c1.1,0,2.1,0.9,2.1,2.1S20.4,18,19.2,18h0c0,0,0,0,0,0
			c-1.1,0-2.1-0.9-2.1-2.1C17.2,14.8,18.1,13.9,19.2,13.9z M29,28.4c-0.3,0-0.5-0.2-0.5-0.5c0-0.5-0.1-0.9-0.2-1.2
			c0-0.1-0.1-0.1-0.1,0c0,0.1,0,6.9,0,6.9c0,0.3-0.3,0.6-0.6,0.6c-0.3,0-0.6-0.3-0.6-0.6c0,0,0-3.2,0-3.4c0-0.1-0.2-0.1-0.2,0
			c0,0.2,0,3.4,0,3.4c0,0.3-0.3,0.6-0.6,0.6c-0.3,0-0.6-0.3-0.6-0.6c0,0,0-7-0.1-7.1s-0.1-0.1-0.2,0c-0.1,0-0.3,0.1-0.5,0.1
			c-0.5,0-1.3-0.2-1.7-1c-0.1,0.1-0.3,0.1-0.5,0.1c-0.5,0-0.9-0.4-0.9-0.9c0-1.1,0-1.8-0.3-2.7c-0.1-0.2-0.2-0.1-0.2,0.1
			c0,0.2,0,0.6,0,1.5c0,0.9,0.8,5,1.1,6.4c0.1,0.3,0,0.5-0.3,0.7c-0.3,0.1-0.6,0.2-0.9,0.3v2.2c0,0.5-0.4,1-0.9,1h0
			c-0.5,0-0.9-0.4-0.9-1v-2.1c0,0,0,0-0.2,0c-0.2,0-0.2,0-0.2,0v2.1c0,0.5-0.4,1-0.9,1h0c-0.5,0-0.9-0.4-0.9-1V31
			c-0.3-0.1-0.6-0.2-0.9-0.3c-0.3-0.1-0.3-0.3-0.3-0.7c0.2-1.4,1.1-5.5,1.1-6.4c0-0.9,0-1.3,0-1.6c0-0.2-0.2-0.3-0.2-0.1
			c-0.3,0.7-0.3,1.5-0.3,2.6c0,0.5-0.4,0.9-0.9,0.9c-0.5,0-0.9-0.4-0.9-0.9c0-0.9,0-2.3,0.5-3.5c0.5-1.1,1.5-2.4,3.9-2.4
			c1.9,0,3.2,0.9,3.9,2.5c0.5,1.2,0.5,2.6,0.5,3.5c0,0,0,0.1,0,0.1c0.2,0,0.3,0,0.5,0.2c0.6,0.6,1.6,0.1,1.9-0.1
			c0.7-0.3,1.7-0.1,2.2,0.3c0.3,0.3,1.1,0.8,1.1,2.7C29.4,28.2,29.2,28.4,29,28.4z M25.6,23.2c0-0.7,0.6-1.3,1.3-1.3
			c0.7,0,1.3,0.6,1.3,1.3c0,0.7-0.6,1.3-1.3,1.3C26.2,24.5,25.6,23.9,25.6,23.2z M29.3,15.3c-0.1,0.3-0.2,0.5-0.4,0.7
			c-0.2,0.2-0.5,0.4-0.8,0.5c-0.3,0.1-0.7,0.2-1.1,0.2h-1.7v2.6h-1.6v-7.2H27c0.4,0,0.8,0.1,1.1,0.2c0.3,0.1,0.6,0.3,0.8,0.5
			c0.2,0.2,0.3,0.5,0.4,0.7c0.1,0.3,0.1,0.6,0.1,0.9C29.4,14.7,29.4,15,29.3,15.3z"/>
		<path class="st2" d="M27.5,13.5c-0.1-0.1-0.3-0.1-0.4-0.2c-0.2,0-0.3,0-0.5,0h-1.2v2.1h1.2c0.2,0,0.4,0,0.5,0
			c0.2,0,0.3-0.1,0.4-0.2c0.1-0.1,0.2-0.2,0.3-0.3c0.1-0.1,0.1-0.3,0.1-0.6c0-0.2,0-0.4-0.1-0.6C27.7,13.7,27.6,13.6,27.5,13.5z"/>
	</g>
</g>
<g id="Garden_Centre" class="st0">
	<g class="st1">
		<path class="st2" d="M32.4,15.2c0-1.5-1.3-2.8-2.8-2.8c-0.1,0-0.3,0-0.4,0c0.1-0.1,0.2-0.1,0.2-0.2c1.1-1.1,1.1-2.9,0-3.9
			c-1.1-1.1-2.8-1.1-3.9,0c-0.1,0.1-0.2,0.2-0.2,0.3c0-0.1,0-0.2,0-0.2c0-1.5-1.3-2.8-2.8-2.8c-1.5,0-2.7,1.2-2.8,2.6
			c-1.1-1-2.8-1-3.9,0.1c-1.1,1.1-1.1,2.9,0,3.9c0.1,0.1,0.3,0.2,0.4,0.4c-0.1,0-0.2,0-0.4,0c-1.5,0-2.8,1.2-2.8,2.8
			c0,1.5,1.2,2.8,2.8,2.8c-1.1,1.1-1,2.8,0,3.9c1.1,1.1,2.8,1.1,3.9,0v0c0,1.3,0.9,2.4,2.1,2.7c-0.2,1.1-0.5,2.4-0.7,3.6
			c0,0,0,0,0-0.1c-0.1-0.5-0.4-1.1-0.8-1.6c-0.2-0.3-0.4-0.5-0.6-0.7c-0.2-0.2-0.5-0.4-0.8-0.6c-0.3-0.2-0.6-0.3-0.9-0.5
			c-0.3-0.1-0.6-0.2-0.9-0.3c-0.3-0.1-0.6-0.1-1-0.1c-0.3,0-0.6,0-0.9,0.1c-0.3,0.1-0.5,0.1-0.8,0.2c-0.2,0.1-0.4,0.2-0.6,0.3
			c-0.1,0.1-0.3,0.2-0.3,0.3c-0.1,0.1-0.1,0.1-0.1,0.1s0,0.1,0.1,0.1c0.1,0.1,0.1,0.2,0.2,0.4c0.1,0.1,0.2,0.3,0.3,0.5
			c0.1,0.2,0.2,0.4,0.4,0.5c0.1,0.2,0.3,0.4,0.4,0.6c0.1,0.2,0.3,0.4,0.5,0.5c0.3,0.3,0.7,0.7,1.1,0.9H14v2.3h0.5l0,0.3
			c0.1,1.5,1,9,4,9h6.9c3.7,0,4.3-8.1,4.4-9.1l0-0.3h0.7v-2.3h-8.3c0.2-1.6,0.4-3.1,0.6-4.1c0.1-0.5,0.1-0.2,0,0
			c1.4-0.1,2.6-1.3,2.6-2.8c0-0.2,0-0.4,0-0.6c0.1,0.1,0.2,0.2,0.3,0.3c1.1,1.1,2.9,1.1,3.9,0c1.1-1,1.1-2.7,0.1-3.8
			C31.2,17.9,32.4,16.7,32.4,15.2z M25.4,39.6h-6.9c-1.5,0-2.6-4.3-3-7.7h13.3C28.5,34.5,27.6,39.6,25.4,39.6z M29.5,30.3H14.9v-0.4
			h14.6V30.3z M19.8,28.9c-0.2-0.3-0.5-0.6-0.8-0.9c-0.3-0.4-0.7-0.7-1.1-1c-0.2-0.1-0.4-0.3-0.5-0.4c-0.2-0.1-0.3-0.2-0.5-0.3
			c-0.2-0.1-0.3-0.2-0.4-0.2c-0.1-0.1-0.3-0.1-0.3-0.2c-0.2-0.1-0.3-0.1-0.3-0.1s0.1,0,0.3,0.1c0.1,0,0.2,0.1,0.4,0.1l0.5,0.2
			c0.2,0.1,0.3,0.2,0.5,0.3c0.2,0.1,0.4,0.2,0.6,0.4c0.4,0.3,0.8,0.6,1.1,0.9c0.4,0.4,0.8,0.8,1.1,1.2H19.8z M22.7,17.6
			c-1.3,0-2.4-1.1-2.4-2.4c0-1.3,1.1-2.4,2.4-2.4c1.3,0,2.4,1.1,2.4,2.4C25.1,16.5,24,17.6,22.7,17.6z"/>
		<path class="st2" d="M22.8,24.8C22.8,24.8,22.8,24.8,22.8,24.8C22.7,25.1,22.8,25,22.8,24.8z"/>
	</g>
</g>
<g id="Calor_Gas" class="st0">
	<g class="st1">
		<path class="st2" d="M42,18.1c-6.1-1.1-8.2-8.3-14.6-8.6V6.5h-5.6v1c0,0.8-0.6,1.4-1.4,1.4S19,8.3,19,7.5v-1h-5.6v8h0v0
			c-2.2,0-3.9,1.8-3.9,3.9v14c0,2.2,1.8,3.9,3.9,3.9h14c2.2,0,3.9-1.8,3.9-3.9v-14c0-2.2-1.8-3.9-3.9-3.9v-2.9
			c5.8,0.3,8.2,7.4,14.1,8.5C42.7,20.3,43.2,18.4,42,18.1z M15.3,8.5h1.8c0.4,1.4,1.7,2.4,3.2,2.4c1.5,0,2.8-1,3.2-2.4h1.8v5.7h-10
			V8.5z M29.3,18.4v14c0,1.1-0.9,2-2,2h-14c-1.1,0-2-0.9-2-2v-14c0-1.1,0.9-2,2-2h14C28.4,16.5,29.3,17.3,29.3,18.4z"/>
		<path class="st2" d="M27.7,36.9H13c-0.6,0-1,0.4-1,1c0,0.5,0.4,1,1,1h14.8c0.6,0,1-0.4,1-1C28.7,37.3,28.3,36.9,27.7,36.9z"/>
		<path class="st2" d="M20.4,18.4c0,0-0.2,2.4-1.9,4.2c-1.5,1.2-1.7,1.9-1.8,2.8c-0.1,0.9,0,2.7,1.7,3.9c0,0-0.6-1.5,0.9-2.7
			c1.4-1.2,1.3-2,1.2-2.1c0,0.1,0.4,1.3,1.1,2c0.8,0.7,0.6,2-0.1,3.1c0,0,2.3-1.5,2.5-3.5C24.4,22.8,21.4,18.9,20.4,18.4z"/>
	</g>
</g>
<g id="Party_Zone" class="st0">
	<g class="st1">
		<path class="st4" d="M37,12.6c-2.1-2-5-3.1-8.2-3.1c-0.6,0-1.1,0-1.7,0.1c-0.6-1.8-1.5-3.4-2.8-4.7c-2.1-2-5-3.1-8.2-3.1
			S10.1,2.9,8,4.9c-2.2,2.2-3.4,5.2-3.4,8.8c0,3.6,1.2,7.4,3.3,10.4c1.7,2.4,3.7,4,6,4.7c-0.1,0.2-0.1,0.5-0.1,0.7v1.4
			c0,0.6,0.5,1,1,1H15c0,0.2-0.1,0.3-0.2,0.5c-0.2,0.5-0.4,1.1-0.4,2.2c0,1.1,0.2,1.7,0.4,2.2c0.2,0.4,0.3,0.8,0.3,1.5
			s-0.1,1.1-0.3,1.5c-0.2,0.5-0.4,1.1-0.4,2.2c0,0.6,0.5,1,1,1s1-0.5,1-1c0-0.8,0.1-1.1,0.3-1.5c0.2-0.5,0.4-1.1,0.4-2.2
			s-0.2-1.7-0.4-2.2c-0.2-0.4-0.3-0.8-0.3-1.5s0.1-1.1,0.3-1.5c0.1-0.3,0.3-0.7,0.3-1.2h0.4c0.6,0,1-0.5,1-1v-1.4
			c0-0.2,0-0.5-0.1-0.7c0.1,0,0.2-0.1,0.3-0.1c1.7,4,4.5,6.8,7.7,7.8c-0.1,0.2-0.1,0.5-0.1,0.7v1.4c0,0.6,0.5,1,1,1h0.2
			c0,0.2-0.1,0.3-0.2,0.5c-0.2,0.5-0.4,1.1-0.4,2.2c0,0.6,0.5,1,1,1s1-0.5,1-1c0-0.7,0.1-1.1,0.3-1.5c0.1-0.3,0.3-0.7,0.3-1.2h0.4
			c0.6,0,1-0.5,1-1v-1.4c0-0.2,0-0.5-0.1-0.7c2.2-0.7,4.3-2.3,6-4.7c2.1-3,3.3-6.7,3.3-10.4C40.4,17.8,39.2,14.8,37,12.6z
			 M13.2,24.6c-0.1,0.2-0.3,0.3-0.4,0.3c-0.1,0-0.2,0-0.3-0.1c-1.6-1.1-3.1-3.3-4-5.9c-0.1-0.3,0-0.7,0.3-0.8c0.3-0.1,0.6,0,0.7,0.4
			c0.8,2.3,2.1,4.3,3.5,5.2C13.2,23.9,13.3,24.3,13.2,24.6z M16.9,30.2h-1.5v-0.7c0-0.4,0.3-0.7,0.7-0.7c0.4,0,0.7,0.3,0.7,0.7V30.2
			z M22,7.9c0.3-0.2,0.7-0.2,0.9,0.1c1.1,1.5,1.7,3.4,1.7,5.7c0,1.1-0.1,2.2-0.4,3.3c-0.1,0.3-0.3,0.5-0.6,0.5c0,0-0.1,0-0.1,0
			c-0.4-0.1-0.6-0.4-0.5-0.8c0.2-1,0.3-2,0.3-3c0-2-0.5-3.7-1.4-4.9C21.6,8.5,21.7,8.1,22,7.9z M18.8,6.7c-0.3-0.1-0.5-0.5-0.4-0.8
			c0.1-0.3,0.5-0.5,0.8-0.4c0.5,0.2,1.1,0.4,1.5,0.7C21,6.3,21.1,6.7,21,7c-0.1,0.2-0.3,0.3-0.6,0.3c-0.1,0-0.2,0-0.3-0.1
			C19.7,7,19.2,6.8,18.8,6.7z M29.6,37.9h-1.5v-0.7c0-0.4,0.3-0.7,0.7-0.7s0.7,0.3,0.7,0.7V37.9z M35.7,30.8
			c-1.9,2.8-4.4,4.3-6.9,4.3c-1.8,0-3.5-0.8-5.1-2.2c-1.4-1.3-2.7-3.2-3.5-5.3c0.4-0.2,0.8-0.5,1.3-0.8c0.9,2.5,2.4,4.6,4.2,5.8
			c0.1,0.1,0.2,0.1,0.4,0.1c0.2,0,0.4-0.1,0.5-0.3c0.2-0.3,0.1-0.7-0.2-0.9c-1.6-1.1-3.1-3.2-3.9-5.6c0.6-0.6,1.1-1.2,1.7-2
			c2-2.9,3.2-6.6,3.2-10.2c0-0.8-0.1-1.6-0.2-2.4c0.5-0.1,1.1-0.1,1.6-0.1c2.7,0,5.2,0.9,7,2.7c1.9,1.8,2.9,4.5,2.9,7.6
			C38.7,24.7,37.6,28.1,35.7,30.8z"/>
		<path class="st4" d="M33.4,13.8c-0.5-0.3-1-0.5-1.5-0.7c-0.3-0.1-0.7,0.1-0.8,0.4c-0.1,0.3,0.1,0.7,0.4,0.8
			c0.5,0.2,0.9,0.3,1.3,0.6C32.8,15,32.9,15,33,15c0.2,0,0.4-0.1,0.6-0.3C33.8,14.4,33.7,14,33.4,13.8z"/>
		<path class="st4" d="M35.5,15.7c-0.2-0.3-0.6-0.4-0.9-0.1s-0.4,0.6-0.1,0.9c0.9,1.2,1.4,2.9,1.4,4.9c0,1-0.1,2-0.3,3
			c-0.1,0.4,0.1,0.7,0.5,0.8c0,0,0.1,0,0.1,0c0.3,0,0.6-0.2,0.6-0.5c0.2-1.1,0.4-2.2,0.4-3.3C37.2,19.1,36.6,17.2,35.5,15.7z"/>
	</g>
</g>
<g id="Lottery" class="st0">
	<g class="st1">
		<g>
			<path class="st2" d="M26.1,24.1c0.6-0.4,1.2-0.6,1.7-0.4c0.8,0.3,0.8,1.4,0.3,2.6c-0.2,0.5-0.6,0.9-1,1.2c-0.5,0.4-1,0.5-1.5,0.4
				c-1-0.4-1.2-2.4-0.5-4.4c0.8-2.1,2.2-3.4,3.3-3c1,0.4,1.2,2.1,0.6,3.9c0.1-0.7-0.2-1.3-0.7-1.6c-0.7-0.4-1.7,0.2-2.2,1.2
				C26.2,23.9,26.1,24,26.1,24.1z"/>
			<path class="st2" d="M32.4,25.2c0.3-1.4-0.1-2.5-0.9-2.5c-0.9,0-2,1.4-2.4,3.1c-0.5,1.7-0.1,3.1,0.8,3.1c0.6,0,1.2-0.6,1.7-1.4
				c0.1-0.1,0.1-0.3,0.2-0.4c0.4-0.9,0.2-1.8-0.5-2c-0.4-0.1-0.8,0-1.2,0.3c0,0,0-0.1,0-0.1c0.3-0.8,1.1-1.3,1.6-1.1
				C32.2,24.2,32.4,24.7,32.4,25.2z"/>
			<path class="st2" d="M23.4,12.2c-1-2.2-2-3.5-2.9-2.9c-1.2,0.9-1,3,0.5,6.8C21.7,14.8,22.5,13.3,23.4,12.2z"/>
			<path class="st2" d="M32.1,27.4c0,0.1-0.1,0.2-0.2,0.3c-0.6,1.1-1.4,1.8-2.3,1.8c-0.9,0-1.5-0.9-1.7-2.1
				c-0.2,0.3-0.5,0.6-0.8,0.8c-0.6,0.4-1.3,0.6-1.9,0.3c-1.4-0.5-1.7-2.9-0.8-5.3c0.4-1.1,1-2,1.7-2.6c-0.2-0.6-0.3-1.4-0.5-2.1
				c-0.1,0.2-0.2,0.4-0.3,0.6c-0.5,0.9-1.1,1.5-1.7,1.9c0.4-0.7,0.8-1.5,1.2-2.2c1.9-3.7,3.4-7,2-7.8c-1.7-1-4,2.5-5.7,6.2
				c-1.7,3.7-2.7,7.5-2.7,7.5s-1.7-3.2-5.1-3.2c-1.7,0-2.8,0.8-2.8,1.6c0,0.5,0.4,0.9,1,1c1.1,0.3,1.7,0.7,2.5,1.8
				c0.8,1.1,1.5,3.9,1.6,4.6c0.9,3.7,4.2,6.5,8.2,6.5c4.7,0,8.4-3.8,8.4-8.4C32.2,28.3,32.2,27.8,32.1,27.4z M25.4,33.9
				c-3,0-5.6-2.8-6.8-6.8c1.7,3.1,4.6,5.1,7.8,5.1c1.3,0,2.6-0.3,3.7-0.9C28.8,32.9,27.2,33.9,25.4,33.9z"/>
		</g>
		<g>
			<g>
				<path class="st2" d="M30.6,10.1c0.3,0,0.6,0.1,0.9,0.2c0.3,0.2,0.5,0.4,0.7,0.7c0.2,0.3,0.2,0.6,0.2,0.9c0,0.3-0.1,0.6-0.2,0.9
					c-0.2,0.3-0.4,0.5-0.7,0.7c-0.3,0.2-0.6,0.2-0.9,0.2c-0.3,0-0.6-0.1-0.9-0.2c-0.3-0.2-0.5-0.4-0.7-0.7c-0.2-0.3-0.2-0.6-0.2-0.9
					c0-0.3,0.1-0.6,0.2-0.9c0.2-0.3,0.4-0.5,0.7-0.7C29.9,10.1,30.2,10.1,30.6,10.1z M30.6,10.4c-0.4,0-0.8,0.1-1.1,0.4
					c-0.3,0.3-0.4,0.6-0.4,1.1s0.1,0.8,0.4,1.1c0.3,0.3,0.6,0.4,1.1,0.4c0.4,0,0.8-0.1,1.1-0.4c0.3-0.3,0.4-0.6,0.4-1.1
					c0-0.4-0.1-0.8-0.4-1.1C31.3,10.5,31,10.4,30.6,10.4z M30.2,12.8h-0.3v-1.9h0.7c0.2,0,0.4,0,0.5,0.1c0.1,0,0.2,0.1,0.2,0.2
					c0.1,0.1,0.1,0.2,0.1,0.3c0,0.1-0.1,0.3-0.2,0.4c-0.1,0.1-0.2,0.2-0.4,0.2c0.1,0,0.1,0.1,0.2,0.1c0.1,0.1,0.1,0.2,0.2,0.3
					l0.2,0.4h-0.4l-0.2-0.3c-0.1-0.2-0.2-0.4-0.3-0.4C30.6,12,30.5,12,30.3,12h-0.2V12.8z M30.2,11.2v0.6h0.4c0.2,0,0.3,0,0.4-0.1
					c0.1,0,0.1-0.1,0.1-0.2c0-0.1,0-0.2-0.1-0.2c-0.1,0-0.2-0.1-0.4-0.1H30.2z"/>
			</g>
			<g>
				<path class="st2" d="M26.1,24.1c0.6-0.4,1.2-0.6,1.7-0.4c0.8,0.3,0.8,1.4,0.3,2.6c-0.2,0.5-0.6,0.9-1,1.2
					c-0.5,0.4-1,0.5-1.5,0.4c-1-0.4-1.2-2.4-0.5-4.4c0.8-2.1,2.3-3.4,3.3-3c1,0.4,1.2,2.1,0.6,3.9c0.1-0.7-0.2-1.3-0.7-1.6
					c-0.7-0.4-1.7,0.2-2.2,1.2C26.2,23.9,26.1,24,26.1,24.1z"/>
				<path class="st2" d="M32.4,25.2c0.3-1.4-0.1-2.5-0.9-2.5c-0.9,0-2,1.4-2.4,3.1c-0.5,1.7-0.1,3.1,0.8,3.1c0.6,0,1.2-0.6,1.7-1.4
					c0.1-0.1,0.1-0.3,0.2-0.4c0.4-0.9,0.2-1.8-0.5-2c-0.4-0.1-0.8,0-1.2,0.3c0,0,0-0.1,0-0.1c0.3-0.8,1.1-1.3,1.6-1.1
					C32.2,24.2,32.4,24.7,32.4,25.2z"/>
				<path class="st2" d="M23.4,12.2c-1-2.2-2-3.5-2.9-2.9c-1.2,0.9-1,3,0.5,6.8C21.7,14.8,22.5,13.3,23.4,12.2z"/>
				<path class="st2" d="M32.1,27.4c0,0.1-0.1,0.2-0.2,0.3c-0.6,1.1-1.4,1.8-2.3,1.8c-0.9,0-1.5-0.9-1.7-2.1
					c-0.2,0.3-0.5,0.6-0.8,0.8c-0.6,0.4-1.3,0.6-1.9,0.3c-1.4-0.5-1.7-2.9-0.8-5.3c0.4-1.1,1-2,1.7-2.6c-0.2-0.6-0.3-1.4-0.5-2.1
					c-0.1,0.2-0.2,0.4-0.3,0.6c-0.5,0.9-1.1,1.5-1.7,1.9c0.4-0.7,0.8-1.5,1.2-2.2c1.9-3.7,3.4-7,2-7.8c-1.7-1-4,2.5-5.7,6.2
					c-1.7,3.7-2.7,7.5-2.7,7.5s-1.7-3.2-5.1-3.2c-1.7,0-2.8,0.8-2.8,1.6c0,0.5,0.4,0.9,1,1c1.1,0.3,1.7,0.7,2.5,1.8
					c0.8,1.1,1.5,3.9,1.6,4.6c0.9,3.7,4.2,6.5,8.2,6.5c4.7,0,8.4-3.8,8.4-8.4C32.2,28.3,32.2,27.8,32.1,27.4z M25.4,33.9
					c-3,0-5.6-2.8-6.8-6.8c1.7,3.1,4.6,5.1,7.8,5.1c1.3,0,2.6-0.3,3.7-0.9C28.8,32.9,27.2,33.9,25.4,33.9z"/>
			</g>
		</g>
	</g>
</g>
<g id="Make_your_own_pizza" class="st0">
	<g class="st1">
		<g>
			<g>
				<polygon class="st2" points="44.3,19.4 44.3,19.4 44.3,19.4 				"/>
				<path class="st2" d="M42.8,18.6l-9.7,1.8c0,0,0.3,1.9,0.7,4l0.4-0.1l0.6-1.6l8.4-1.7c0.4-0.1,0.7-0.5,0.6-1l-0.1-0.6
					C43.7,18.9,43.2,18.5,42.8,18.6z M42.6,20c0,0.2-0.1,0.3-0.3,0.4S42,20.3,42,20.1c0-0.2,0.1-0.3,0.3-0.4S42.6,19.8,42.6,20z"/>
				<path class="st2" d="M33.5,24.8l-0.1-0.6l-0.7-3.6l0,0l0,0L32,20.6l-13.7,2.5c0.4,1.1,2.9,5.2,15.4,3L33.5,24.8L33.5,24.8z"/>
			</g>
		</g>
		<g>
			<g>
				<g>
					<g>
						<g>
							<path class="st2" d="M16.4,20.9c-0.2-0.3-0.3-0.8-0.3-1.2c-0.1-1.1,0.3-2,0.9-2.1c0.1,0,0.2,0,0.3,0l1.4-5.6L3.4,17.4
								c0.3,0.7,0.6,1.4,0.9,2.1c2,3.7,5.2,6.3,8.9,7.6c0,0,1.1,0.5,1.6,0.2L16.4,20.9z M15.9,17.6c0.1,0.6-0.4,1.2-1,1.2
								c-0.6,0-1.2-0.4-1.2-1c-0.1-0.6,0.4-1.2,1-1.2C15.3,16.5,15.9,17,15.9,17.6z M8.1,18.7C8,17.8,8.7,17.1,9.6,17
								c0.9-0.1,1.7,0.6,1.8,1.5c0.1,0.9-0.6,1.7-1.5,1.8C8.9,20.3,8.2,19.6,8.1,18.7z M11.1,22.5c0-0.6,0.4-1.1,1-1.1
								c0.6,0,1.1,0.4,1.1,1c0,0.6-0.4,1.1-1,1.1C11.7,23.5,11.2,23.1,11.1,22.5z"/>
						</g>
					</g>
				</g>
				<g>
					<g>
						<g>
							<path class="st2" d="M5.2,25.5c-3.4-3.4-4.4-7.1-4.4-7.3l1.9-0.5l-1,0.2l1-0.2c0.1,0.3,2.1,8.2,12,11l-0.5,1.9
								C10.1,29.4,7.2,27.5,5.2,25.5z"/>
						</g>
					</g>
				</g>
			</g>
		</g>
		<g>
			<g id="b42_mushroom">
				<path class="st2" d="M18.5,30c-1.1,0.6-1.6,3-0.5,5c1.1,2,3.4,2.9,4.5,2.3c0.8-0.4,1-1.6,0.6-3c0.9-0.2,1.9-0.6,2.7-1
					c2-1.1,2.3-2.4,1.7-3.5c-0.6-1.1-1.9-1.5-3.8-0.4c-0.8,0.4-1.6,1-2.3,1.7C20.4,30.1,19.2,29.6,18.5,30z"/>
			</g>
		</g>
		<g>
			<path class="st2" d="M27.1,10.7c-4.4-0.6-5.7,1.6-5.7,4.1c0,2.6,2.5,4.7,5.7,4.7c3.1,0,5.7-2.1,5.7-4.7
				C32.8,12.2,31.5,9.8,27.1,10.7z"/>
			<path class="st2" d="M26.2,10.4l1.1,0.1c1.2-0.1,1.5-1.4,1.5-1.4l-1,0.7v-1L27,9.6l-0.4-1.8v1.9l-1.1-0.5l0.5,0.8L26.2,10.4z"/>
		</g>
	</g>
</g>
<g id="Flower_Wrapping" class="st0">
	<g class="st1">
		<path class="st2" d="M33.6,14.8c0.5,0,1-0.3,1.2-0.8c0.4-0.7,0.1-1.6-0.7-2c-0.3-0.1-0.9-0.3-1.5-0.5c0.6-0.2,1.2-0.5,1.4-0.6
			c0.7-0.4,0.9-1.4,0.4-2c-0.3-0.5-0.8-0.7-1.3-0.7c-0.3,0-0.5,0.1-0.7,0.2c-0.3,0.2-0.7,0.6-1.2,1.1c0.1-0.6,0.2-1.3,0.2-1.6
			c0-0.8-0.7-1.4-1.6-1.4c-0.2,0-0.4,0.1-0.6,0.1c-0.1,0.6-0.4,1.1-0.8,1.5c0.8,0.6,1.2,1.6,1.1,2.5c0.1-0.1,0.3-0.1,0.5-0.1
			c0.6,0,1.2,0.4,1.2,1.1c0,0.6-0.4,1.2-1.1,1.2c-0.4,0-0.8-0.2-1-0.6c-0.5,0.8-1.4,1.4-2.4,1.4c-0.3,0-0.6,0-1-0.1
			c0,0.2-0.1,0.3-0.1,0.4c0,0,0,0,0,0c-0.5,0.8-1.3,1.9-1.7,2.8c-0.1,0-0.1,0-0.2,0l-0.1-1.6c0.6-0.4,1-1,0.9-1.8
			c0-0.4-0.2-1.2-0.5-2c0.6,0.6,1.3,1.1,1.7,1.2c0.3,0.2,0.7,0.2,1,0.2c0.7,0,1.3-0.4,1.6-1.1c0.5-1,0.1-2.1-0.9-2.6
			c-0.4-0.2-1.1-0.4-2-0.6c0.8-0.3,1.6-0.6,1.9-0.8c0.9-0.6,1.2-1.8,0.6-2.7c-0.4-0.6-1.1-0.9-1.7-0.9c-0.3,0-0.7,0.1-1,0.3
			c-0.3,0.2-0.9,0.8-1.5,1.4c0.2-0.8,0.3-1.7,0.2-2.1c-0.1-1.1-1-1.9-2.1-1.8c-1.1,0.1-1.9,1-1.8,2.1c0,0.4,0.2,1.2,0.5,2
			c-0.6-0.6-1.3-1.1-1.7-1.2c-0.3-0.2-0.7-0.2-1-0.2c-0.7,0-1.3,0.4-1.6,1.1c-0.5,1-0.1,2.1,0.9,2.6c0.4,0.2,1.1,0.4,2,0.6
			c-0.8,0.3-1.6,0.6-1.9,0.8c-0.9,0.6-1.2,1.8-0.6,2.7c0.4,0.6,1.1,0.9,1.7,0.9c0.3,0,0.7-0.1,1-0.3c0.3-0.2,0.9-0.8,1.5-1.4
			c-0.2,0.8-0.3,1.7-0.2,2.1c0,0.8,0.5,1.4,1.2,1.7l0.1,1.4c-0.1,0-0.2,0-0.3,0c-0.6-1.2-1.2-2-2-2.9c-0.2-0.2-0.9,0-1.4,0
			c-0.9,0-1.1-0.5-1.2-0.3c0,0,0,0,0,0c0.7,0.7,1.5,1.7,2.3,2.9c-4.2-0.7-6.5-2.3-8.4-3.2c-0.3,5.9,1.6,11.7,7.2,14.4
			c-2.2,0.3-5.2,2.1-3.5,4.5c0.8,1.1,3.8-2.9,4.1-2.5c-3.8,4.6-6.5,6.4-6.5,10.1c0.7,1.5,1.5,2.9,2.7,4c-1.8-4.8,1-9.2,4.2-13
			c0.6,1.6-4.8,10.8,0.9,11.3c6.9,0.5,5-3.6,3.1-10.4c3.5,3.4,5.2,5.2,5.8,6.1c0.1,0.1,0.2,0.2,0.2,0.3c0.6,1,1.5,2.1,1.8,3.3
			c0.3-0.5,0.4-1,0.3-1.6c-0.1-0.7-0.4-1.3-0.8-1.9c-0.4-0.7-0.9-1.4-1.5-2c-0.5-0.7-1.1-1.3-1.7-1.9c-0.5-0.5-1.1-1-1.6-1.6
			c-0.2-0.2-0.4-0.4-0.6-0.5c-0.1-0.1-0.4-0.2-0.4-0.4c0-0.1,0-0.1,0-0.1c0.1-0.1,0.3,0,0.4,0.1c0.4,0.1,0.9,0.1,1.3,0.2
			c0.5,0,0.9,0,1.4,0c0.3,0,0.7-0.1,0.9-0.3c0,0,0,0,0,0c1.8-2.3-5.2-2.7-5.2-2.7c7.4-2.8,9.6-7.1,11.1-13.4c-1,0.2-2,0.5-2.9,0.6
			c0.1-0.2,0.2-0.5,0.2-0.8c0-0.3-0.1-0.9-0.4-1.5c0.5,0.4,1,0.8,1.3,0.9C33.1,14.8,33.4,14.9,33.6,14.8z M20.5,9
			c-0.1-1.1,0.8-2,1.9-2.1c1.1-0.1,2,0.8,2.1,1.9c0.1,1.1-0.8,2-1.9,2.1C21.5,10.9,20.6,10.1,20.5,9z M26.1,16.8
			c0.3-0.6,0.6-1.2,0.8-1.7c0.1,0,0.2,0,0.3,0c0.3,0,0.5-0.1,0.7-0.2c0.3-0.2,0.7-0.6,1.2-1.1C29,14.5,29,15.1,29,15.4
			c0,0.4,0.2,0.8,0.5,1C28.3,16.6,27.2,16.8,26.1,16.8z"/>
		<path class="st2" d="M12.7,13.3c0.3-0.2,0.7-0.6,1.2-1.1c-0.1,0.6-0.2,1.3-0.2,1.6c0,0.8,0.7,1.4,1.6,1.4c0.8,0,1.4-0.7,1.4-1.6
			c0-0.1,0-0.2,0-0.4c-0.2-0.1-0.3-0.3-0.4-0.5c-0.4-0.5-0.5-1.2-0.5-1.8c-0.2,0.1-0.4,0.2-0.7,0.2c-0.7,0-1.2-0.5-1.3-1.1
			c0-0.7,0.5-1.2,1.1-1.3c0.5,0,1,0.3,1.2,0.7c0.1-0.3,0.3-0.5,0.5-0.7c-0.5-0.4-0.8-0.9-1-1.4c-0.2-0.7-0.2-1.5,0.1-2.2
			c-0.3-0.2-0.6-0.4-1-0.3c-0.8,0-1.4,0.7-1.4,1.6c0,0.3,0.1,0.9,0.4,1.5c-0.5-0.4-1-0.8-1.3-0.9c-0.2-0.1-0.5-0.2-0.7-0.2
			c-0.5,0-1,0.3-1.2,0.8c-0.4,0.7-0.1,1.6,0.7,2c0.3,0.1,0.9,0.3,1.5,0.5c-0.6,0.2-1.2,0.5-1.4,0.6c-0.7,0.4-0.9,1.4-0.4,2
			c0.3,0.5,0.8,0.7,1.3,0.7C12.2,13.5,12.4,13.4,12.7,13.3z"/>
	</g>
</g>
<g id="ATM" class="st0">
	<g class="st1">
		<path class="st2" d="M33.6,9.7H12.4c-0.6,0-1.1,0.5-1.1,1.1v24.4c0,0.6,0.5,1.1,1.1,1.1h21.2c0.6,0,1.1-0.5,1.1-1.1V10.7
			C34.7,10.1,34.2,9.7,33.6,9.7z M15.2,13.3c0-0.2,0.2-0.4,0.4-0.4h14.9c0.2,0,0.4,0.2,0.4,0.4v7.3c0,0.2-0.2,0.4-0.4,0.4H15.6
			c-0.2,0-0.4-0.2-0.4-0.4V13.3z M21.4,32.8h-5.7c-0.2,0-0.4-0.2-0.4-0.4l0.8-6.4c0-0.2,0.2-0.4,0.4-0.4h4.1c0.2,0,0.4,0.2,0.4,0.4
			l0.8,6.4C21.8,32.6,21.6,32.8,21.4,32.8z M22.4,25.4c0,0.2-0.2,0.4-0.4,0.4h-0.5c-0.2,0-0.4-0.2-0.4-0.4v-0.2h-5.3v0.2
			c0,0.2-0.2,0.4-0.4,0.4h-0.5c-0.2,0-0.4-0.2-0.4-0.4v-1c0-0.2,0.2-0.4,0.4-0.4h7c0.2,0,0.4,0.2,0.4,0.4V25.4z M25.3,32.7
			c0,0.1-0.1,0.3-0.3,0.3h-1.5c-0.1,0-0.3-0.1-0.3-0.3v-1.5c0-0.1,0.1-0.3,0.3-0.3h1.5c0.1,0,0.3,0.1,0.3,0.3V32.7z M25.3,29.7
			c0,0.1-0.1,0.3-0.3,0.3h-1.5c-0.1,0-0.3-0.1-0.3-0.3v-1.5c0-0.1,0.1-0.3,0.3-0.3h1.5c0.1,0,0.3,0.1,0.3,0.3V29.7z M25.3,26.7
			c0,0.1-0.1,0.3-0.3,0.3h-1.5c-0.1,0-0.3-0.1-0.3-0.3v-1.5c0-0.1,0.1-0.3,0.3-0.3h1.5c0.1,0,0.3,0.1,0.3,0.3V26.7z M28.3,32.7
			c0,0.1-0.1,0.3-0.3,0.3h-1.5c-0.1,0-0.3-0.1-0.3-0.3v-1.5c0-0.1,0.1-0.3,0.3-0.3h1.5c0.1,0,0.3,0.1,0.3,0.3V32.7z M28.3,29.7
			c0,0.1-0.1,0.3-0.3,0.3h-1.5c-0.1,0-0.3-0.1-0.3-0.3v-1.5c0-0.1,0.1-0.3,0.3-0.3h1.5c0.1,0,0.3,0.1,0.3,0.3V29.7z M28.3,26.7
			c0,0.1-0.1,0.3-0.3,0.3h-1.5c-0.1,0-0.3-0.1-0.3-0.3v-1.5c0-0.1,0.1-0.3,0.3-0.3h1.5c0.1,0,0.3,0.1,0.3,0.3V26.7z M31.3,32.7
			c0,0.1-0.1,0.3-0.3,0.3h-1.5c-0.1,0-0.3-0.1-0.3-0.3v-1.5c0-0.1,0.1-0.3,0.3-0.3h1.5c0.1,0,0.3,0.1,0.3,0.3V32.7z M31.3,29.7
			c0,0.1-0.1,0.3-0.3,0.3h-1.5c-0.1,0-0.3-0.1-0.3-0.3v-1.5c0-0.1,0.1-0.3,0.3-0.3h1.5c0.1,0,0.3,0.1,0.3,0.3V29.7z M31.3,26.7
			c0,0.1-0.1,0.3-0.3,0.3h-1.5c-0.1,0-0.3-0.1-0.3-0.3v-1.5c0-0.1,0.1-0.3,0.3-0.3h1.5c0.1,0,0.3,0.1,0.3,0.3V26.7z"/>
		<path class="st2" d="M16.7,19.2h0.7c0.1,0,0.2-0.1,0.2-0.2l0.3-1h1.3l0.3,1c0,0.1,0.1,0.2,0.2,0.2h0.7c0.1,0,0.2,0,0.2-0.1
			c0-0.1,0.1-0.1,0-0.2l-1.3-4.3c0-0.1-0.1-0.2-0.2-0.2H18c-0.1,0-0.2,0.1-0.2,0.2l-1.3,4.3c0,0.1,0,0.2,0,0.2
			C16.6,19.1,16.6,19.2,16.7,19.2z M18.4,16.1c0-0.2,0.1-0.4,0.1-0.5c0-0.1,0-0.1,0-0.2c0.1,0.2,0.1,0.5,0.2,0.7l0.3,0.9h-0.9
			L18.4,16.1z"/>
		<path class="st2" d="M20.6,15.4h1v3.6c0,0.1,0.1,0.3,0.3,0.3h0.7c0.1,0,0.3-0.1,0.3-0.3v-3.6h1c0.1,0,0.3-0.1,0.3-0.3v-0.5
			c0-0.1-0.1-0.3-0.3-0.3h-3.2c-0.1,0-0.3,0.1-0.3,0.3v0.5C20.3,15.3,20.4,15.4,20.6,15.4z"/>
		<path class="st2" d="M24.5,19.2h0.6c0.1,0,0.2-0.1,0.3-0.2l0.1-1.5c0-0.2,0-0.6,0.1-1.3c0-0.1,0-0.2,0-0.3c0.1,0.5,0.2,1,0.3,1.4
			l0.5,1.7c0,0.1,0.1,0.2,0.2,0.2h0.5c0.1,0,0.2-0.1,0.2-0.2l0.5-1.7c0.2-0.5,0.3-1,0.4-1.5c0,0.6,0,1.1,0,1.6l0.1,1.6
			c0,0.1,0.1,0.2,0.3,0.2h0.6c0.1,0,0.1,0,0.2-0.1c0-0.1,0.1-0.1,0.1-0.2l-0.2-4.3c0-0.1-0.1-0.2-0.3-0.2H28c-0.1,0-0.2,0.1-0.2,0.2
			L27.3,16c0,0,0,0,0,0c-0.1,0.5-0.3,1.1-0.4,1.5c-0.1-0.4-0.2-0.9-0.4-1.5c0,0,0,0,0,0l-0.4-1.4c0-0.1-0.1-0.2-0.2-0.2h-1.1
			c-0.1,0-0.2,0.1-0.3,0.2l-0.3,4.3c0,0.1,0,0.1,0.1,0.2C24.4,19.2,24.5,19.2,24.5,19.2z"/>
	</g>
</g>
<g id="Free_From" class="st0">
	<g class="st1">
		<path class="st2" d="M27.9,18.7c0.2,0,0.3,0,0.5-0.1c0.2,0,0.2,0,0.3-0.1c0.1,0,0.2-0.1,0.3-0.1c0.3,0,0.4-0.1,0.4-0.3
			c0-0.1-0.2-0.1-0.3-0.2c-0.2-0.2-0.3-0.2-0.6-0.2c-0.3,0-0.3,0-0.5,0c-0.2,0-0.2,0.1-0.4,0.2c-0.2,0.1-0.1,0-0.3,0.2
			c-0.2,0.2-0.1,0.2-0.2,0.3c-0.1,0.1-0.2,0.3-0.2,0.4c0,0.1-0.1,0.2,0.2,0.2c0.1,0,0.2-0.1,0.4-0.1C27.7,18.7,27.7,18.7,27.9,18.7z
			"/>
		<path class="st2" d="M36.1,17.9c-0.2-0.2-0.3-0.2-0.6-0.2s-0.3,0-0.5,0c-0.2,0-0.2,0.1-0.4,0.2c-0.2,0.1-0.1,0-0.3,0.2
			c-0.2,0.2-0.1,0.2-0.2,0.3C34,18.4,34,18.6,34,18.7c0,0.1-0.1,0.2,0.2,0.2c0.1,0,0.2-0.1,0.4-0.1c0.2,0,0.3,0,0.4-0.1
			s0.3,0,0.5-0.1c0.2,0,0.2,0,0.3-0.1s0.2-0.1,0.3-0.1c0.3,0,0.4-0.1,0.4-0.3C36.4,18,36.3,18,36.1,17.9z"/>
		<path class="st2" d="M34.9,10.3H10.1c-4.1,0-7.5,3.4-7.5,7.5v10.1c0,4.1,3.4,7.5,7.5,7.5h24.8c4.1,0,7.5-3.4,7.5-7.5V17.8
			C42.4,13.7,39,10.3,34.9,10.3z M20.9,15.9c0.1,0,0.1,0,0.2,0c0.1,0,0.2,0,0.3,0c0.2,0,0.3,0,0.5,0h0.2c0.1,0,0.1,0,0.2,0
			c0.1,0,0.3,0,0.3,0.3c0,0.1,0,0.3,0,0.4c0,0.1,0.1,0.2,0.1,0c0.1-0.1,0.2-0.3,0.2-0.4c0-0.1,0-0.1,0.1-0.1c0,0,0.1-0.1,0.1-0.1
			c0.1-0.1,0.4-0.3,0.8-0.3c0.1,0,0.2,0,0.3,0c0.1,0,0.2,0.1,0.3,0.2c0.1,0.1,0.1,0.4,0.1,0.4c0,0.1,0,0.1,0,0.2c0,0.1,0,0.1,0,0.2
			c0,0.1,0,0.2,0,0.3c0,0.1,0,0.1,0,0.2c0,0.1,0,0.1,0,0.2l0,0.3c0,0.1-0.1,0.2-0.2,0.3c-0.1,0-0.2,0.1-0.3,0.1c-0.1,0-0.2,0-0.2,0
			c-0.1,0-0.2,0-0.2,0c-0.1,0-0.1,0-0.3,0c-0.2,0-0.4,0.1-0.4,0.2c-0.1,0.1-0.2,0.2-0.2,0.4c0,0-0.1,0.1-0.1,0.2c0,0.1,0,0.2,0,0.3
			c0,0.1,0,0.1,0,0.2c0,0.1,0,0.3,0,0.4c0,0.1,0,0.3,0,0.3c0,0.2,0,0.3,0,0.4c0,0.2,0,0.3,0,0.5v0c0,0.2,0,0.3,0,0.4
			c0,0.2,0,0.4,0.1,0.6c0,0.2,0,0.5-0.1,0.6c-0.1,0.1,0,0.1-0.2,0.1c-0.1,0.1-0.2,0-0.3,0c-0.2,0-0.4,0-0.6,0c-0.2,0-0.3,0-0.6,0
			h-0.1h-0.1c-0.1,0-0.4-0.1-0.4-0.4c0-0.2,0-0.2,0.1-0.3c0-0.2,0-0.2,0-0.5c0-0.2,0-0.2,0-0.5c0-0.2,0-0.3,0-0.4c0-0.2,0-0.4,0-0.6
			c0-0.2,0-0.4,0-0.7c0-0.1,0-0.2,0-0.4c0-0.2,0-0.4,0-0.7c0-0.1,0-0.2,0-0.3c0-0.2,0-0.3,0-0.4c0-0.1,0-0.2,0-0.3
			c0-0.2,0-0.3,0-0.5v-0.3c0-0.2,0-0.4,0.2-0.6C20.7,15.9,20.9,15.9,20.9,15.9z M24.9,21.6c0.1-0.2,0.2-0.3,0.3-0.4
			c0.1-0.1,0.2-0.3,0.4-0.4c0.3-0.2,0.5,0.1,0.6,0.1c0.1,0.1,0.2,0.2,0.3,0.3c0.1,0.1,0.4,0.3,0.2,0.6c-0.2,0.3-0.4,0.4-0.6,0.6
			c-0.1,0.1-0.1,0-0.3,0.3c-0.2,0.3-0.2,0.2-0.4,0.4c-0.1,0.1-0.2,0.1-0.3,0.3c-0.1,0.2-0.1,0.1-0.2,0.3c-0.1,0.1-0.1,0.2-0.2,0.3
			c-0.1,0.2-0.2,0.3-0.3,0.4c-0.1,0.1-0.1,0.2-0.2,0.3c-0.1,0.1-0.2,0.3-0.2,0.4c0,0.1-0.1,0.1-0.1,0.3c-0.1,0.2-0.2,0.4-0.2,0.5
			c-0.1,0.2-0.2,0.4-0.2,0.6c0,0.2-0.2,0.5-0.2,0.6c0,0.2-0.1,0.5-0.2,0.6c0,0.2-0.1,0.3-0.1,0.4s0,0.1,0,0.3c0,0.1-0.1,0.2-0.2,0.3
			c-0.2,0-0.2,0.1-0.4,0.1c-0.1,0-0.3-0.1-0.4-0.2c-0.1-0.1-0.1-0.1-0.3-0.3c-0.2-0.3-0.3-0.4-0.3-0.5c-0.1-0.2-0.2-0.3-0.3-0.4
			c-0.1-0.1-0.1-0.3-0.3-0.4c-0.1-0.1-0.3-0.3-0.5-0.6c0-0.1-0.1-0.2-0.2-0.2c-0.1-0.1,0-0.1-0.1-0.1c-0.1-0.1-0.2-0.3,0-0.5
			c0.1-0.1,0.2-0.2,0.4-0.2c0.1,0,0.1-0.1,0.3-0.2c0.1-0.1,0.1-0.1,0.3-0.1c0.1,0,0.2,0.1,0.2,0.3c0.1,0.2,0.1,0.1,0.2,0.2
			c0.1,0.1,0.2,0.3,0.2,0.4c0,0.1,0.2,0.2,0.3,0.4c0.1,0.2,0.2,0.4,0.3,0.3c0.1-0.1,0-0.4,0.2-0.7c0.1-0.3,0.1-0.6,0.2-0.7
			c0.3-0.6,0.6-1.3,0.6-1.3c0.1-0.1,0.2-0.3,0.2-0.4c0.1-0.1,0.2-0.2,0.3-0.4c0.1-0.1,0.2-0.4,0.4-0.6c0.1-0.2,0.4-0.4,0.4-0.5
			C24.4,22,24.8,21.7,24.9,21.6z M12.7,22.9c-0.1,0-0.1,0-0.4,0c-0.1,0-0.2,0-0.4,0c-0.2,0-0.3,0-0.5,0c-0.1,0-0.2,0-0.3,0
			c0,0-0.2-0.1-0.3,0c-0.1,0.1-0.2,0-0.4,0h-0.4c-0.1,0-0.3,0-0.4,0c-0.1,0-0.2,0-0.3,0.3c0,0.1,0,0.4,0,0.6c0,0.2,0,0.3,0,0.4
			c0,0.1,0,0.4,0,0.6c0,0.1,0.2,0.1,0.4,0.1c0.2,0,0.3,0,0.3,0c0.1,0,0.1,0,0.3,0c0.3,0,0.2,0,0.5,0c0.2,0,0.3,0,0.5,0
			c0.2,0,0.3,0,0.5,0c0.3,0,0.4,0.1,0.4,0.3c0,0.1,0,0.2,0,0.2c0,0.2,0,0.3,0,0.4c0,0.1,0,0.2,0,0.3c0,0.2,0,0.3,0,0.4
			c0,0.1,0,0.2,0,0.3l-0.1,0.1c-0.1,0.1-0.1,0.2-0.4,0.2h-0.3c-0.1,0-0.2,0-0.3,0c-0.2,0-0.2,0-0.4,0c-0.2,0-0.2,0-0.3,0
			c-0.1,0-0.1,0-0.2,0c-0.3,0-0.3-0.1-0.4,0c-0.1,0-0.2,0-0.3,0c-0.1,0-0.2,0.1-0.1,0.3c0,0.2,0,0.4,0,0.5c0,0.1,0,0.2,0,0.3
			c0,0.2,0,0.2,0,0.4c0,0.2,0,0.4,0,0.6v1.3c0,0,0,0.1,0,0.2c0,0.1,0,0.1,0,0.2c0,0.2,0,0.4-0.2,0.5c-0.1,0-0.2,0.1-0.3,0.1H8.8
			c-0.3,0-0.5,0-0.7,0c-0.1,0-0.2,0-0.4,0c-0.1,0-0.2,0-0.3,0c-0.4,0-0.5-0.4-0.5-0.5c0-0.3,0-0.5,0-0.8c0-0.3,0-0.5,0-0.7
			c0-0.4,0-0.6,0-1c0-0.3,0-0.5,0-0.7v-0.4c0-0.2,0-0.3,0-0.5c0-0.3,0-0.4,0-0.7v-0.6c0-0.8,0-1.7,0-2.4c0-0.3,0-0.6,0-0.9v-0.5
			c0-0.2,0-0.2,0-0.4c0-0.1,0-0.2,0-0.2c0-0.1,0-0.1,0.1-0.3c0.1-0.4,0.4-0.4,0.6-0.4h0.4c0.2,0,0.3,0,0.5,0c0.2,0,0.4,0,0.5,0
			c0.2,0,0.4,0,0.6,0c0.2,0,0.4,0,0.5,0c0.2,0,0.4,0,0.6,0h0.7c0.2,0,0.3,0,0.4,0c0.1,0,0.3,0,0.4,0c0.2,0,0.3,0,0.5,0
			c0.5,0,0.5,0.4,0.5,0.6c0,0.2,0,0.4,0,0.6c0,0.2,0,0.3,0,0.5c0,0.1,0,0.3,0,0.5c0,0.2-0.3,0.2-0.3,0.2
			C12.8,22.8,12.8,22.9,12.7,22.9z M17.4,25.3c0,0.1,0,0.1,0,0.2l0,0.3c0,0.1-0.1,0.3-0.2,0.4c-0.1,0.1-0.2,0.1-0.3,0.1
			c-0.1,0-0.1,0-0.2,0c-0.1,0-0.3,0-0.3,0c-0.1,0-0.2,0.1-0.4,0.1c-0.2,0-0.3,0.3-0.3,0.2c0.1-0.1-0.2,0.4-0.2,0.4
			c0,0-0.1,0.1-0.1,0.3c0,0.1,0,0.2,0,0.3c0,0.1,0,0.1,0,0.2c0,0.1,0,0.2,0,0.3c0,0.1,0,0.3,0,0.4c0,0.2,0,0.3,0,0.5
			c0,0.2,0,0.4,0,0.6v0c0,0.2,0,0.3,0,0.5c0,0.2,0,0.4,0.1,0.6c0,0.3,0,0.5-0.1,0.6c-0.1,0.1-0.1,0.1-0.2,0.2c-0.1,0.1-0.3,0-0.4,0
			c-0.2,0-0.4,0-0.6,0c-0.2,0-0.4,0-0.6,0h-0.1h-0.1c-0.2,0-0.4-0.1-0.4-0.4c0-0.2,0-0.2,0.1-0.4c0-0.2,0-0.2,0-0.5
			c-0.1-0.3,0-0.3,0-0.5c0-0.2,0-0.3,0-0.5c0-0.2,0-0.4,0-0.6c0-0.3,0-0.5,0-0.7c0-0.2,0-0.3,0-0.4c0-0.3,0-0.5,0-0.7
			c0-0.1,0-0.2,0-0.3c0-0.2,0-0.3,0-0.5c0-0.1,0-0.2,0-0.3c0-0.2,0-0.3,0-0.5v-0.4c0-0.2,0-0.5,0.2-0.7c0.1-0.1,0.2-0.1,0.3-0.1
			c0.1,0,0.1,0,0.3,0c0.1,0,0.2,0,0.3,0c0.2,0,0.3,0,0.5,0h0.2c0.1,0,0.1,0,0.2,0c0.1,0,0.4,0,0.4,0.4c0,0.1,0,0.3,0,0.4
			c0,0.1,0.1,0.2,0.1,0c0.1-0.1,0.2-0.3,0.3-0.4c0-0.1,0-0.1,0.1-0.1c0,0,0.1-0.1,0.1-0.1c0.1-0.1,0.4-0.4,0.7-0.4
			c0.1,0,0.2,0,0.3,0c0.1,0,0.3,0.1,0.4,0.2c0.1,0.1,0.1,0.4,0.1,0.5c0,0.1,0,0.1,0,0.2c0,0.1,0,0.1,0,0.2c0,0.2,0,0.2,0,0.3
			C17.4,25.2,17.4,25.2,17.4,25.3z M17.2,19.3c0,0.2,0,0.4,0,0.5c0,0.1,0,0.1,0,0.2c0,0.1,0,0.1,0,0.3c0,0.2,0,0.4,0,0.6v1
			c0,0,0,0.1,0,0.2c0,0.1,0,0.1,0,0.2c0,0.2,0,0.4-0.1,0.5c-0.1,0-0.2,0.1-0.3,0.1h-0.2c-0.3,0-0.4,0-0.7,0c-0.1,0-0.2,0-0.3,0
			c-0.1,0-0.2,0-0.3,0c-0.4,0-0.4-0.3-0.4-0.4c0-0.3,0-0.5,0-0.7c0-0.3,0-0.3,0-0.6c0-0.3,0-0.6,0-0.9c0-0.2,0-0.3,0-0.5v-0.4
			c0-0.2,0-0.3,0-0.4c0-0.2,0-0.4,0-0.7v-0.5c0-0.7,0-1.3,0-2.1c0-0.3,0-0.6,0-0.9v-0.5c0-0.1,0-0.2,0-0.4c0-0.1,0-0.1,0-0.2
			c0-0.1,0-0.1,0.1-0.3c0.1-0.3,0.3-0.3,0.6-0.3h0.3c0.2,0,0.3,0,0.4,0c0.1,0,0.3,0,0.5,0c0.2,0,0.4,0,0.6,0c0.2,0,0.3,0,0.5,0
			c0.2,0,0.4,0,0.6,0H19c0.2,0,0.3,0,0.4,0c0.1,0,0.3,0,0.4,0c0.2,0,0.3,0,0.4,0c0.5,0,0.5,0.4,0.5,0.5c0,0.2,0,0.5,0,0.7
			c0,0.2,0,0.3,0,0.4c0,0.1,0,0.1,0,0.3c0,0.2-0.3,0.2-0.3,0.2c-0.1,0-0.1,0.1-0.2,0c-0.1,0-0.1,0-0.3,0c-0.1,0-0.2,0-0.3,0
			c-0.2,0-0.3,0-0.5,0c-0.1,0-0.2,0-0.3,0c0,0-0.2-0.1-0.2,0c-0.1,0.1-0.2,0-0.4,0h-0.4c-0.1,0-0.3,0-0.4,0c-0.1,0-0.2,0-0.3,0.3
			c0,0.1,0,0.4,0,0.7c0,0.2,0,0.3,0,0.4c0,0.1,0,0.2,0,0.4c0,0.1,0.2,0.1,0.4,0.1c0.2,0,0.2,0,0.2,0c0.1,0,0,0,0.2,0
			c0.3,0,0.2,0,0.5,0c0.2,0,0.3,0,0.5,0c0.2,0,0.2,0,0.4,0c0.3,0,0.3,0.1,0.4,0.3c0,0.1,0,0.2,0,0.2c0,0.1,0,0.2,0,0.4
			c0,0.1,0,0.2,0,0.3c0,0.1,0,0.2,0,0.4c0,0.1,0,0.2,0,0.2l-0.1,0.1c-0.1,0.1-0.1,0.2-0.3,0.2h-0.2c-0.1,0-0.2,0-0.3,0
			c-0.2,0-0.3,0-0.5,0c-0.1,0-0.1,0-0.3,0c-0.1,0-0.2,0-0.3,0c-0.3,0-0.2,0-0.3,0C17.3,19,17.2,19.1,17.2,19.3z M26.2,27.9
			c0,0.7,0,0.7-0.2,0.9c0,0.1-0.1,0.2-0.1,0.3c0,0,0,0.1,0,0.1c0,0.1-0.1,0.3-0.3,0.6c-0.1,0.1-0.1,0.2-0.2,0.3l-0.1,0.1
			c-0.1,0.1-0.1,0.2-0.2,0.2c-0.1,0.1-0.2,0.2-0.2,0.3c-0.1,0.1-0.3,0.2-0.3,0.2l0,0c-0.1,0.1-0.2,0.1-0.3,0.2l0,0c0,0-0.1,0-0.1,0
			c0,0-0.1,0-0.1,0c-0.1,0-0.1,0-0.2,0.1l-0.3,0.1c-0.1,0-0.1,0-0.2,0.1l0,0c-0.3,0.1-0.5,0.1-0.7,0.1l0,0c-0.1,0-0.2,0-0.4,0
			l-0.1,0c-0.1,0-0.2,0-0.3,0c-0.2,0-0.3,0-0.5-0.1c-0.1,0-0.1,0-0.2,0c-0.1,0-0.1,0-0.2,0c-0.4,0-0.5-0.1-1.2-0.4
			c-0.2-0.1-0.5-0.3-0.6-0.4c-0.1-0.1-0.1-0.1-0.2-0.2c-0.1-0.1-0.1-0.2-0.2-0.2c0,0-0.1-0.1-0.1-0.1c-0.2-0.2-0.3-0.4-0.5-0.7
			c-0.1-0.2-0.3-0.9-0.3-1l0,0c0-0.2,0-0.2,0-0.3l0,0c0-0.1,0-0.2,0-0.3c0-0.1,0-0.1,0-0.2c0-0.1,0-0.1,0-0.2c0,0,0-0.1,0-0.1
			c0-0.1,0-0.6,0.1-0.7c0,0,0-0.1,0.1-0.1c0,0,0-0.1,0.1-0.1c0,0,0-0.1,0.1-0.2c0,0,0-0.1,0.1-0.1l0.3-0.4c0.1-0.1,0.1-0.1,0.1-0.2
			c0.1-0.1,0.1-0.2,0.2-0.3c0,0,0.1-0.1,0.1-0.1c0.3-0.3,0.9-0.9,1.6-1.1c0.1-0.1,0.3-0.1,0.4-0.1c0.1,0,0.1-0.1,0.3-0.1
			c0.2,0,0.4,0,0.5,0H22l0.1,0c0.1,0,0.2,0,0.3,0l0,0c0,0,0,0,0,0c0.1,0,0.1,0,0.2,0c0.1,0,0,0.1,0,0.1c0,0,0,0,0,0
			c-0.1,0.1-0.1,0.2-0.4,0.8c-0.1,0.2-0.2,0.4-0.3,0.6c-0.1,0.1-0.1,0.3-0.1,0.4c0,0.1-0.1,0.1-0.1,0c0,0,0-0.1-0.1-0.1
			c-0.1-0.1-0.1-0.1-0.1-0.2c-0.1-0.3-0.3-0.5-0.5-0.5c-0.1,0-0.2-0.1-0.3-0.1c-0.2,0-0.3,0.1-0.3,0.1c0,0,0,0,0,0
			c-0.2,0.1-0.2,0.1-0.3,0.2c-0.2,0.1-0.3,0.2-0.5,0.3l0,0c-0.3,0.2-0.5,0.6-0.2,1.1c0,0.1,0.1,0.1,0.1,0.2c0,0.1,0.1,0.1,0.1,0.1
			c0,0,0.1,0.1,0.1,0.1l0,0l0,0c0.1,0.2,0.3,0.3,0.4,0.4c0,0,0,0.1,0,0.2c0,0,0,0.1,0,0.1c0,0.5,0.1,0.7,0.2,1
			c0.1,0.2,0.2,0.3,0.2,0.4c0.2,0.2,0.6,0.5,0.8,0.5c0.1,0,0.2,0,0.3,0.1c0.1,0,0.1,0.1,0.2,0c0,0,0,0,0,0c0.1,0,0.1,0,0.2,0
			c0,0,0,0,0,0c0.1,0,0.2,0,0.3,0c0.2,0,0.4-0.1,0.5-0.2c0.1-0.1,0.4-0.2,0.5-0.4c0.1-0.1,0.1-0.2,0.2-0.3c0-0.1,0.1-0.1,0.1-0.2
			c0,0,0-0.1,0.1-0.2c0-0.1,0-0.1,0.1-0.1c0-0.1,0.1-0.1,0.1-0.2c0-0.1,0.1-0.5,0.1-0.7c0-0.1,0-0.2,0-0.3c0-0.1,0-0.1,0-0.1
			c-0.1-0.2-0.1-0.2-0.2-0.3c0-0.1,0,0,0-0.1c-0.1,0,0-0.1,0-0.1c0,0,0-0.1,0.1-0.2c0-0.1,0.1-0.2,0.1-0.3c0-0.1,0.1-0.3,0.2-0.4
			c0,0,0-0.1,0-0.1c0.1-0.1,0.1-0.1,0.1-0.2c0,0,0,0,0-0.1c0,0,0-0.1,0.1-0.1c0,0,0-0.1,0.1-0.1c0.2-0.2,0.2-0.3,0.3-0.4
			c0,0,0,0,0,0c0,0,0,0,0,0c0-0.1,0.1-0.1,0.2,0c0.1,0.1,0.2,0.2,0.2,0.2c0.2,0.2,0.3,0.3,0.4,0.5c0.2,0.2,0.3,0.4,0.4,0.8v0
			c0,0,0,0.1,0,0.1c0,0,0,0.1,0,0.1c0.1,0.2,0.2,0.7,0.2,1.1L26.2,27.9z M26.5,22.5c0.1-0.1,0.3-0.3,0.4-0.4
			c0.2-0.2,0.2-0.5,0.1-0.7c-0.1-0.2-0.2-0.3-0.2-0.4c0,0,0,0,0,0c-0.1-0.1-0.2-0.2-0.3-0.3c0,0,0,0-0.1,0c-0.1-0.1-0.4-0.4-0.7-0.4
			c-0.2,0-0.3,0.1-0.5,0.2c-0.1,0.1-0.2,0.2-0.3,0.3c0,0.1-0.1,0-0.1,0c0-0.1-0.1-0.2-0.1-0.3l0-0.1c0,0,0-0.1,0-0.1l0-0.3
			c0-0.2,0-0.4-0.1-0.6l0,0c0,0,0-0.1,0-0.3c0-0.1,0.1-0.4,0.1-0.5l0,0c0,0,0,0,0,0c0-0.1,0-0.2,0.1-0.3l0,0c0-0.1,0.1-0.2,0.1-0.3
			l0.1-0.2c0.1-0.3,0.2-0.4,0.5-0.7c0.3-0.3,0.4-0.4,0.7-0.6l0.1,0c0.4-0.3,0.7-0.3,0.9-0.4c0,0,0.1,0,0.1,0c0.1,0,0.1,0,0.2,0
			l0.3-0.1c0.3-0.1,0.4-0.1,0.8-0.1c0.3,0,0.4,0.1,0.5,0.1l0,0c0.1,0,0.3,0.1,0.5,0.2c0.2,0.1,0.4,0.2,0.7,0.4l0.1,0.1
			c0.1,0.1,0.2,0.3,0.3,0.4l0.2,0.2c0,0,0,0,0.1,0.1c0,0,0.2,0.3,0.2,0.3c0.1,0.3,0.1,0.5,0.2,0.6c0.1,0.3,0.2,0.8,0.1,1
			c-0.1,0.3-0.3,0.4-0.4,0.4l-0.3,0.1c-0.2,0-0.2,0.1-0.4,0.1c-0.2,0.1-0.5,0.2-0.7,0.2c-0.2,0-0.3,0-0.5,0c0,0-0.1,0-0.2,0
			c-0.1,0-0.1,0.1-0.1,0.1l0,0c-0.1,0-0.1,0-0.1,0l0,0c-0.1,0-0.1,0-0.2,0l0,0c-0.1,0-0.2,0-0.3,0c-0.1,0-0.1,0.1-0.2,0.1l0,0
			c-0.1,0-0.1,0-0.2,0c-0.2,0-0.3,0.1-0.3,0.1c0,0.1,0,0.2,0,0.2c0,0,0.1,0.1,0.1,0.2c0.3,0.2,0.5,0.2,0.7,0.2c0.2,0,0.2,0,0.3,0
			c0.1,0,0.1,0,0.1,0c0.1,0,0.2,0,0.3,0c0.1,0,0.2-0.1,0.4-0.1c0,0,0.1,0,0.1,0c0.1,0,0.4,0,0.6-0.1c0.1-0.1,0.3-0.1,0.4-0.1
			c0.1,0,0.2-0.1,0.3-0.1c0.1,0,0.4,0.1,0.4,0.3c0,0.2,0,0.2,0,0.3c0,0.1,0,0.1,0,0.3c0,0.2,0.1,0.3,0,0.5c-0.1,0.1,0.1,0.2-0.2,0.4
			c-0.2,0.1-0.3,0.2-0.4,0.2c-0.1,0-0.2,0.1-0.3,0.1c-0.1,0-0.3,0.1-0.4,0.1l0,0c-0.1,0-0.2,0.1-0.3,0.1c-0.1,0-0.2,0-0.3,0
			c-0.1,0-0.1,0-0.2,0c-0.1,0-0.4,0.1-0.8,0.1c-0.1,0-0.1,0-0.2,0c-0.2,0-0.3-0.1-0.5-0.1l-0.1,0c-0.1,0-0.1,0-0.2,0l0,0
			C27.1,22.8,26.9,22.8,26.5,22.5C26.5,22.6,26.5,22.6,26.5,22.5z M38.3,31c0,0,0,0.1,0,0.1l0,0c-0.1,0.3-0.2,0.4-0.4,0.4
			c-0.1,0-0.1,0-0.2,0c-0.1,0-0.1,0-0.2,0c-0.1,0-0.1,0-0.2,0c0,0-0.1,0-0.1,0c-0.1,0-0.1,0-0.2,0c-0.1,0-0.1,0-0.2,0
			c-0.1,0-0.3,0-0.4,0c0,0,0,0-0.1,0l-0.1,0c-0.1,0-0.1,0-0.1,0c-0.2,0-0.3-0.1-0.3-0.3v-0.4c0-0.2,0-0.3,0-0.5l0,0
			c0-0.1,0-0.1,0-0.2v-0.4c0-0.1,0-0.2,0-0.3c0-0.2,0-0.3,0-0.5c0-0.2,0-0.3,0-0.4c0-0.2,0.1-0.5,0-0.7c-0.1-0.2,0-0.3,0-0.4
			c0-0.1,0-0.2,0-0.3c0-0.1,0-0.2,0-0.4c0-0.2-0.1-0.2-0.2-0.3c-0.1-0.1-0.2-0.3-0.3-0.3c-0.1,0-0.2-0.1-0.4-0.1c0,0,0,0,0,0
			c-0.3,0-0.3,0.1-0.4,0.1c0,0-0.1,0.1-0.2,0.1L34,26.5l0,0c-0.1,0.1-0.2,0.3-0.2,0.7v0.7c0,0.3,0,0.5,0,0.8c0,0.2,0,0.3,0,0.4
			c0,0.2,0,0.3,0,0.4l0,0.1c0,0.1,0,0.1,0,0.2c0,0.1,0,0.2,0,0.2c0,0.1,0,0.1,0,0.2c0,0,0,0.1,0,0.1c0,0,0,0.1,0,0.1
			c0,0,0,0.1,0,0.1c0,0.1,0,0.2,0,0.3c0,0.1,0,0.1,0,0.2c0,0.2,0,0.3,0,0.3l0,0c0,0,0,0,0,0h0l0,0c-0.1,0-0.1,0.1-0.2,0.1
			c0,0-0.1,0-0.1,0c-0.1,0-0.1,0-0.2,0c-0.2,0-0.3,0-0.5,0c-0.1,0-0.2,0-0.3,0c-0.1,0-0.1,0-0.2,0c-0.1,0-0.1,0-0.2,0l-0.1,0
			c-0.1,0-0.3,0-0.3,0c-0.1,0-0.3,0-0.3-0.6c0-0.1,0-0.2,0-0.3c0-0.1,0-0.2,0-0.3c0-0.1,0-0.2,0-0.3c0,0,0-0.1,0-0.1
			c0-0.1,0-0.2,0-0.3c0-0.1,0-0.2,0-0.3v-0.7c0-0.1,0-0.3,0-0.4c0-0.1,0-0.2,0-0.2c0-0.1,0-0.1,0-0.2v-0.4c0-0.4,0-1-0.4-1.1l0,0
			c-0.1,0-0.1-0.2-0.3-0.2c-0.1,0-0.2,0-0.4,0c0,0,0,0-0.1,0L30,26.2l0,0.1c-0.1,0.1-0.2,0.1-0.3,0.1c-0.1,0.1-0.2,0.3-0.2,0.4
			c-0.1,0.2,0,0.5-0.1,0.8v0.3c0,0.1,0,0.1,0,0.2c0,0.1,0,0.1,0,0.2c0,0.1,0,0.2,0,0.2c0,0.1,0,0.2,0,0.2l0,0c0,0.1,0,0.1,0,0.2
			c0,0.1,0,0.1,0,0.2c0,0.2,0,0.3,0,0.4c0,0.1,0,0.2,0,0.4c0,0.1,0,0.1,0,0.2c0,0.2,0,0.3,0,0.6c0,0.1,0,0.1,0,0.2
			c0,0.1,0,0.1,0,0.2c0,0.1-0.1,0.3-0.1,0.3l-0.1,0.1c-0.1,0.1-0.3,0.1-0.3,0.1c-0.1,0-0.2,0-0.3,0c-0.1,0-0.1,0-0.2,0
			c0,0,0,0-0.1,0c0,0,0,0,0,0c0,0,0,0,0,0l0,0c0,0-0.1,0-0.1,0c0,0-0.1,0-0.1,0l-0.1,0c-0.1,0-0.2,0-0.3,0l0,0c-0.1,0-0.2,0-0.3,0
			h-0.1c-0.1,0-0.2,0-0.2,0c-0.1,0-0.2-0.2-0.2-0.6c0-0.2,0-0.3,0-0.5l0-0.1l0,0c0-0.1,0-0.1,0-0.2c0,0,0-0.1,0-0.1c0,0,0-0.1,0-0.1
			c0-0.1,0-0.1,0-0.2c0,0,0-0.1,0-0.1c0,0,0-0.1,0-0.1c0,0,0-0.1,0-0.1c0,0,0-0.1,0-0.2c0-0.1,0-0.2,0-0.3l0-0.9c0-0.2,0-0.3,0-0.4
			c0-0.1,0-0.2,0-0.2c0-0.1,0-0.1,0-0.2c0-0.1,0-0.1,0-0.1c0-0.1,0-0.1,0-0.2c0-0.1,0-0.2,0-0.2c0,0,0,0,0,0c0,0,0-0.1,0-0.2
			c0-0.1,0-0.2,0-0.3c0-0.1,0-0.2,0-0.3c0-0.1,0-0.2,0-0.3c0-0.1,0-0.2,0-0.3v-0.4c0-0.1,0-0.1,0-0.2c0,0,0-0.1,0-0.1
			c0-0.3,0-0.2,0.1-0.3c0.1-0.1,0.3-0.3,0.6-0.2c0.2,0,0.3,0,0.5,0c0.1,0,0.2,0,0.2,0c0.2,0,0.3,0,0.4,0c0.2,0,0.3,0.1,0.4,0.2
			c0.1,0.1,0.1,0.4,0.1,0.5c0,0.4,0.3,0.1,0.3,0c0.1-0.2,0.3-0.4,0.5-0.5c0.1,0,0.3-0.2,0.5-0.2c0.2-0.1,0.4-0.1,0.8-0.1h0.3
			c0.1,0,0.1,0,0.1,0c0.1,0.1,0.3,0,0.4,0.1c0.1,0.1,0.4,0.1,0.5,0.3c0.1,0.1,0.2,0.1,0.3,0.2c0.1,0.1,0.2,0.1,0.2,0.2
			c0,0.1,0.2,0.3,0.4,0.2c0.1,0,0.2-0.1,0.3-0.3c0.1-0.1,0.3-0.1,0.3-0.1c0.1-0.1,0.1,0,0.2-0.1c0-0.1,0.1,0,0.2-0.1l0.1,0
			c0.1,0,0.5-0.3,0.9-0.3h0.3c0,0,0.1,0,0.1,0c0,0,0.1,0,0.1,0c0.1,0,0.5,0.1,0.6,0.1c0,0,0.1,0,0.1,0.1c0,0,0.1,0,0.1,0l0.2,0.1
			c0.1,0.1,0.2,0.2,0.3,0.2l0,0c0,0,0,0,0.1,0.1c0.1,0.1,0.2,0.1,0.2,0.2c0.1,0.1,0.1,0.2,0.1,0.2v0l0,0c0,0,0,0.1,0.1,0.1
			c0,0,0,0.1,0.1,0.1l0,0c0,0,0.1,0.4,0.1,0.6c0,0.2,0,0.3,0,0.6c0,0.1,0,0.2,0,0.2c0,0.1,0,0.1,0,0.2c0,0.1,0,0.2,0,0.3
			c0,0.1,0,0.2,0,0.3c0,0.1,0,0.2,0,0.3c0,0.1,0,0.2,0,0.3v0.5l0,0.1c0,0.1,0,0.1,0,0.2c0,0,0,0.1,0,0.1c0,0,0,0.1,0,0.1
			c0,0.1,0,0.1,0,0.2c0,0.1,0,0.1,0,0.2l0,0c0,0.1,0,0.2,0,0.3V31z M38.5,19.2c-0.1,0.3-0.3,0.4-0.4,0.4l-0.3,0.1
			c-0.2,0-0.2,0.1-0.4,0.1C37.2,19.9,37,20,36.7,20c-0.2,0-0.3,0-0.5,0c0,0-0.1,0-0.2,0c-0.1,0-0.1,0.1-0.1,0.1l0,0
			c-0.1,0-0.1,0-0.1,0l0,0c-0.1,0-0.1,0-0.2,0l0,0c-0.1,0-0.2,0-0.3,0c-0.1,0-0.1,0.1-0.2,0.1l0,0c-0.1,0-0.1,0-0.2,0
			c-0.2,0-0.3,0.1-0.3,0.1c0,0.1,0,0.2,0,0.2c0,0,0.1,0.1,0.1,0.2c0.3,0.2,0.5,0.2,0.7,0.2c0.2,0,0.2,0,0.3,0c0.1,0,0.1,0,0.1,0
			c0.1,0,0.2,0,0.3,0c0.1,0,0.2-0.1,0.4-0.1c0,0,0.1,0,0.1,0c0.1,0,0.4,0,0.6-0.1c0.1-0.1,0.3-0.1,0.4-0.1c0.1,0,0.2-0.1,0.3-0.1
			c0.1,0,0.3,0.1,0.3,0.3c0,0.2,0,0.2,0,0.3c0,0.1,0,0.1,0,0.3c0,0.2,0.1,0.3,0,0.5c-0.1,0.1,0.1,0.2-0.2,0.4
			c-0.2,0.1-0.3,0.2-0.4,0.2c-0.1,0-0.2,0.1-0.3,0.1c-0.1,0-0.3,0.1-0.4,0.1l0,0c-0.1,0-0.2,0.1-0.3,0.1c-0.1,0-0.2,0-0.3,0
			c-0.1,0-0.1,0-0.2,0c-0.1,0-0.4,0.1-0.8,0.1c-0.1,0-0.1,0-0.2,0c-0.2,0-0.3-0.1-0.5-0.1l-0.1,0c-0.1,0-0.1,0-0.2,0l0,0
			c-0.2,0-0.4,0-0.9-0.3c-0.4-0.2-0.6-0.4-0.8-0.7c-0.1-0.1-0.3-0.3-0.3-0.5l0,0c-0.1-0.1-0.1-0.2-0.2-0.3l0-0.1
			c-0.1-0.2-0.2-0.4-0.2-0.7l0-0.1c0,0,0-0.1,0-0.1l0-0.3c0-0.2,0-0.4-0.1-0.6l0,0c0,0,0-0.1,0-0.3c0-0.1,0.1-0.4,0.1-0.5l0,0
			c0,0,0,0,0,0c0-0.1,0-0.2,0.1-0.3l0,0c0-0.1,0.1-0.2,0.1-0.3l0.1-0.2c0.1-0.3,0.2-0.4,0.5-0.7c0.3-0.3,0.4-0.4,0.7-0.6l0.1,0
			c0.4-0.3,0.6-0.3,0.9-0.4c0,0,0.1,0,0.1,0c0.1,0,0.1,0,0.2,0l0.3-0.1c0.3-0.1,0.4-0.1,0.8-0.1c0.3,0,0.4,0.1,0.5,0.1l0,0
			c0.1,0,0.3,0.1,0.5,0.2c0.2,0.1,0.4,0.2,0.6,0.4l0.1,0.1c0.1,0.1,0.2,0.3,0.3,0.4l0.2,0.2c0,0,0,0,0.1,0.1c0,0,0.2,0.3,0.2,0.3
			c0.1,0.3,0.1,0.5,0.2,0.6C38.5,18.5,38.5,19.1,38.5,19.2z"/>
	</g>
</g>
<g id="Halal_Meat">
	<g>
		<polygon class="st2" points="26.1,29 26.8,29 26.5,27.4 		"/>
		<polygon class="st2" points="19.8,29 20.5,29 20.1,27.4 		"/>
		<path class="st2" d="M22.5,7.5c-8.2,0-14.8,6.6-14.8,14.8c0,8.2,6.6,14.8,14.8,14.8s14.8-6.6,14.8-14.8
			C37.3,14.1,30.7,7.5,22.5,7.5z M18.1,30.7h-0.9v-1.8H16v1.8h-0.9v-4.3H16v1.7h1.2v-1.7h0.9V30.7z M18.4,22.6
			c-0.2,2.1-2.8,2.8-4.4,2.8c-0.2,0-0.3,0-0.5,0c-1.6-0.2-1.9-1.1-1.9-1.9c0.1-1.4,1.4-3.3,1.7-3.3c0,0,0.1,0,0.1,0.1
			c0,0,0,0.1,0,0.1c-0.5,0.8-0.5,1.6-0.2,2.1c0.3,0.5,0.9,0.8,1.7,0.8c1,0,2.1-0.6,2.2-1.9c0-0.4,0.1-0.8,0.1-1.2
			c0.2-1.9,0.5-4.2-0.2-5.7c0,0,0-0.1,0-0.1c0.2-0.3,0.6-0.5,0.9-0.7c0.2-0.1,0.3-0.2,0.5-0.3c0,0,0.1,0,0.1,0c0,0,0.1,0,0.1,0.1
			l0.9,2.2c0,0,0,0.1,0,0.1c0,0-0.1,0.1-0.1,0.1c-0.9,0.1-1,3.7-1,5.5C18.5,21.8,18.4,22.3,18.4,22.6z M20.9,30.7l-0.2-0.9h-1
			l-0.2,0.9h-1l1.1-4.3h1.2l1.1,4.3H20.9z M24.7,30.7h-2.5v-4.3h0.9v3.5h1.6V30.7z M27.2,30.7L27,29.8h-1l-0.2,0.9h-1l1.1-4.3h1.2
			l1.1,4.3H27.2z M31,30.7h-2.5v-4.3h0.9v3.5H31V30.7z M28.5,23.8L28.5,23.8c-0.3,0-0.5,0-0.7,0c0,0,0,0,0,0
			c-2.5-0.6-2.1-2.7-1.8-4.7c0,0,0-0.1,0-0.1c-0.8,1.8-2.6,5.3-4.7,5.3c-0.6,0-1.1-0.3-1.6-0.9c0,0,0-0.1,0-0.2
			c0.4-0.5,1.1-0.8,1.7-1.2c0.5-0.3,1.1-0.6,1.5-0.9c-0.2-1.2-0.7-2.3-1.5-3.5l0,0.2c0,0,0,0.1-0.1,0.1c0,0-0.1,0-0.1,0
			c-1.4-0.9-1.1-2-0.8-3.2c0.1-0.2,0.1-0.5,0.2-0.7c0,0,0-0.1,0.1-0.1c0,0,0.1,0,0.1,0c1.7,1.5,2.7,3.5,3.1,6.2
			c0.7-0.9,1-1.8,1.3-2.7c0.5-1.3,1-2.6,2.4-3.4c0,0,0.1,0,0.1,0c0,0,0.1,0.1,0.1,0.1c-0.1,0.8-0.2,1.6-0.3,2.3
			c-0.2,1.5-0.5,3-0.4,4.4c0.1,0.8,1.4,0.9,2.5,0.9c0.6,0,1.2,0,1.9-0.1c-0.2-0.2-0.4-0.3-0.6-0.5c-0.5-0.4-0.9-0.8-1.3-0.8
			c-0.3,0-0.6,0.2-0.9,0.6c0,0-0.1,0.1-0.1,0.1c-0.3-0.1-0.4-0.3-0.4-0.7c0.1-0.7,1.1-1.9,2-1.9c0.2,0,0.4,0,0.5,0.1
			c0.7,0.4,1.3,1,1.9,1.6c0.2,0.2,0.4,0.4,0.6,0.6c0.5,0.5,1.2,0.8,1.9,0.9c0,0,0.1,0,0.1,0.1c0,0,0,0.1,0,0.1
			C34.5,23.7,29.5,23.8,28.5,23.8z"/>
	</g>
</g>
<g id="Foreign_Exchange" class="st0">
	<g class="st1">
		<path class="st2" d="M15.4,11.4c0,0.3,0.1,0.5,0.3,0.6c0.2,0.1,0.5,0.3,1,0.3v-1.9c-0.5,0.1-0.8,0.2-1,0.3
			C15.5,11,15.4,11.2,15.4,11.4z"/>
		<path class="st2" d="M18.3,14.6v1.9c0.8-0.1,1.2-0.4,1.2-0.9c0-0.3-0.1-0.5-0.3-0.6C19,14.8,18.7,14.7,18.3,14.6z"/>
		<path class="st2" d="M31.7,16.8l3.1,3.1c1.9,1.9,1.9,4.6,1.9,4.6l0.5-0.8c0.8-1.4,1.4-3,1.3-4.3c-0.2-2.2-1.6-3.9-2.4-4.7L35,13.5
			l2.2-2.2l-8-0.3l0.3,8L31.7,16.8z"/>
		<path class="st2" d="M14.1,28.5l-2.8-2.8c-1.7-1.7-1.7-4.3-1.7-4.3l0-1.6L8.3,22c-1,1.6-1.5,3.3-1.4,4.6c0.2,2.4,1.7,4.1,2.5,5
			l0.8,0.8L7.6,35l9.4,0.3l-0.3-9.4L14.1,28.5z M9.7,34.2l1.8-1.8L10,31c-0.8-0.8-2.1-2.4-2.3-4.5c-0.1-1,0.3-2.4,1.1-3.8
			c0.2,1,0.7,2.5,1.8,3.6l3.4,3.4l1.8-1.8l0.2,6.5L9.7,34.2z"/>
		<path class="st2" d="M26.4,13.5c0-4.9-4-8.9-8.9-8.9c-4.9,0-8.9,4-8.9,8.9c0,4.9,4,8.9,8.9,8.9C22.4,22.4,26.4,18.4,26.4,13.5z
			 M20.7,17.5C20.1,18,19,18.3,18,18.4V19h-1v-0.5c-1,0-1.6-0.1-2.2-0.2C14.2,18.2,14,18,13,17.9v-1.9c1,0.1,0.7,0.2,1,0.2
			c0.2,0.1,0.6,0.1,0.9,0.2c0.3,0,0.7,0.1,1,0.1c0.3,0,0.1,0,1.1,0.1v-2.2c-1-0.1-1-0.1-1.4-0.2c-0.4-0.1-0.9-0.3-1.2-0.5
			c-0.3-0.2-0.6-0.5-0.8-0.8c-0.2-0.3-0.3-0.8-0.3-1.3c0-0.4,0.1-0.8,0.2-1.2c0.2-0.3,0.4-0.6,0.7-0.9C14.5,9.2,15,9,15.4,8.9
			C15.8,8.7,16,8.6,17,8.6V8h1v0.5c1,0,1.1,0.1,1.5,0.2C20,8.8,21,8.9,21,9.1v2c-1-0.3-2-0.5-3-0.6v2.2c1,0.1,1,0.2,1.4,0.3
			s0.8,0.3,1.2,0.5c0.3,0.2,0.6,0.5,0.8,0.8c0.2,0.3,0.3,0.8,0.3,1.3C21.6,16.4,21.2,17,20.7,17.5z"/>
		<path class="st2" d="M28.6,22.9c-5.2,0-9.4,4.2-9.4,9.4s4.2,9.4,9.4,9.4s9.4-4.2,9.4-9.4S33.7,22.9,28.6,22.9z M28.6,40.7
			c-4.7,0-8.5-3.8-8.5-8.5s3.8-8.5,8.5-8.5s8.5,3.8,8.5,8.5S33.3,40.7,28.6,40.7z"/>
		<path class="st2" d="M30.5,36.1c-0.3,0.1-0.5,0.2-0.7,0.2c-0.1,0-0.3,0-0.4-0.1S29.1,36,29,36s-0.3-0.1-0.5-0.2
			c-0.1,0-0.3-0.1-0.4-0.1c-0.1,0-0.2,0-0.4,0c-0.1,0-0.2,0-0.3,0.1l-0.1,0c0.5-0.4,0.9-0.8,1.1-1.2s0.3-0.7,0.3-1.1
			c0-0.2,0-0.5-0.1-0.5H31v-1h-2.7l-0.4-1c-0.1-0.3-0.2-0.7-0.3-0.9c-0.1-0.3-0.1-0.5-0.1-0.6c0-0.3,0.1-0.6,0.3-0.8
			c0.2-0.2,0.5-0.4,1-0.4c0.2,0,0.4,0,0.6,0.1c0.1,0.1,0.3,0.2,0.4,0.4c0.1,0.2,0.2,0.4,0.2,0.6c0,0.2,0.1,0.7,0.1,0.7h2
			c0-1-0.3-1.9-0.9-2.4c-0.6-0.5-1.4-0.8-2.4-0.8c-0.5,0-1,0.1-1.4,0.2c-0.4,0.1-0.7,0.3-1,0.6c-0.3,0.2-0.5,0.5-0.6,0.9
			c-0.1,0.3-0.2,0.9-0.2,1.2c0,0.6,0.2,1.3,0.7,2.3H25v1h1.6c0.1,0,0.2,0.5,0.2,0.7c0,0.5-0.2,1-0.5,1.4C26,35.6,25.5,36,25,36.3
			l0.6,1.2c0.3-0.1,0.6-0.2,0.8-0.3c0.2-0.1,0.5-0.1,0.7-0.1c0.2,0,0.5,0,0.7,0.1c0.2,0.1,0.5,0.1,0.7,0.2c0.2,0.1,0.5,0.1,0.7,0.2
			c0.2,0.1,0.4,0.1,0.6,0.1c0.8,0,1.5-0.2,2.3-0.7l-0.7-1.4C31.1,35.8,30.8,36,30.5,36.1z"/>
	</g>
</g>
<g id="World_foods" class="st0">
	<g class="st1">
		<path class="st2" d="M23.5,8.6C15.7,8.6,9.3,15,9.3,22.8c0,7.8,6.3,14.1,14.1,14.1c7.8,0,14.1-6.3,14.1-14.1
			C37.6,15,31.3,8.6,23.5,8.6z M16.8,28.6c0-0.4-0.5-2-0.5-3.4c0-1.3-2.3-1.3-2.3-3.1c0-1.6,1.2-2.4,1-3.2c-0.3-0.8-2.5-0.8-3.4-0.9
			c1.6-4.1,5.3-7.2,9.8-7.8c-0.3,0.6-1.1,0.8-1.5,1.2c-1,0.9-1.5,0.8-2,1.7c-0.6,0.9-2.4,2.2-2.4,2.8c0,0.6,0.9,1.4,1.4,1.3
			c0.5-0.1,1.7-0.1,2.4,0.1c0.7,0.3,5.9,0.5,4.3,4.9c-0.5,1.4-2.8,1.2-3.4,3.5c-0.1,0.3-0.4,1.8-0.4,2.3c0,0.7,0.5,3.5-0.2,3.5
			C18.7,31.5,16.8,29,16.8,28.6z M23.1,34.8c-1.4,0-2.7-0.2-3.9-0.6c0.7-0.4,0.8-0.9,1.5-0.9c0.8,0,1.4-0.3,2.3-0.5
			c1.6-0.4,1.5-0.9,3.4-1.1c1-0.1,3,0.1,3.6,1C28,34,25.7,34.8,23.1,34.8z M32.9,30c-0.5-0.4-0.9-1.3-0.5-2.3c0.5-1,0.6-3.3,0.5-4.2
			c-0.1-0.9-0.6-3.1-1.8-3.1c-1.3,0-2.1-0.4-2.9-1.9c-1.6-3.1,2.9-3.7,1.4-5.5c-0.4-0.5-2.7,2-3-1.3c0-0.2,0.2-0.6,0.5-1
			c4.9,1.6,8.4,6.3,8.4,11.7C35.5,25.3,34.5,27.9,32.9,30z"/>
		<path class="st2" d="M5.3,8.6H5.1v8.3c0,0.2-0.3,0.4-0.6,0.4c-0.3,0-0.6-0.2-0.6-0.4V8.6h-1v8.3c0,0.2-0.3,0.4-0.6,0.4
			c-0.3,0-0.6-0.2-0.6-0.4V8.6H1.4c-0.7,0-1,0.5-1,1.2v8c0,0.4,1.4,1.5,2.4,2.1v2.3C2.3,22.4,2,22.8,2,23.3v12.5
			C2,36.4,2.5,37,3.2,37H4c0.6,0,1.2-0.5,1.2-1.2V23.3c0-0.5-0.3-0.9-0.8-1.1v-2.4c0.9-0.6,2.2-1.7,2.2-2.1v-8
			C6.5,9.1,6,8.6,5.3,8.6z"/>
		<path class="st2" d="M43.4,8.6c0,0-3.1,2-3.1,7.3V17c0,5.3,1.2,7.6,1.9,8.9v10.3c0,0.5,0.4,0.9,0.9,0.9h0.6c0.5,0,0.9-0.4,0.9-0.9
			V25.4c0-0.1,0-0.2,0-0.2V9.8C44.6,9.1,44.3,8.2,43.4,8.6z"/>
	</g>
</g>
</svg>
