<?xml version="1.0" encoding="utf-8"?>
<!-- Generator: Adobe Illustrator 19.2.1, SVG Export Plug-In . SVG Version: 6.00 Build 0)  -->
<svg version="1.1" id="Layer_1" xmlns="http://www.w3.org/2000/svg" xmlns:xlink="http://www.w3.org/1999/xlink" x="0px" y="0px"
	 viewBox="0 0 29.2 41" style="enable-background:new 0 0 29.2 41;" xml:space="preserve">
<style type="text/css">
	.st0{fill:#35a63e;}
</style>
<path class="st0" d="M14.6,0.5c-7.7,0-14,6.3-14,14c0,10.5,14,26,14,26s14-15.5,14-26C28.6,6.7,22.3,0.5,14.6,0.5z"/>
</svg>
